<?xml version="1.0" encoding="utf-8"?>
<!-- Generator: Adobe Illustrator 14.0.0, SVG Export Plug-In  -->
<!DOCTYPE svg PUBLIC "-//W3C//DTD SVG 1.1//EN" "http://www.w3.org/Graphics/SVG/1.1/DTD/svg11.dtd" [
	<!ENTITY ns_flows "http://ns.adobe.com/Flows/1.0/">
]>
<svg version="1.1"
	 xmlns="http://www.w3.org/2000/svg" xmlns:xlink="http://www.w3.org/1999/xlink" xmlns:a="http://ns.adobe.com/AdobeSVGViewerExtensions/3.0/"
	 x="0px" y="0px" width="300px" height="100px" viewBox="-95 -6.988 300 100" enable-background="new -95 -6.988 300 100"
	 xml:space="preserve">
<defs>
</defs>
<path d="M9.274,3.918c0.72,0.17,1.569,0.77,1.569,1.919c0,0.68-0.26,1.16-0.61,1.5c-0.51,0.499-1.329,0.719-2.479,0.719
	c-0.63,0-1.1-0.05-1.409-0.079V0.49c0.42-0.09,1.02-0.16,1.639-0.16c0.939,0,1.559,0.18,2.009,0.56c0.36,0.311,0.57,0.75,0.57,1.319
	c0,0.75-0.51,1.399-1.29,1.68V3.918z M8.064,3.639c1.01,0,1.659-0.58,1.659-1.359V2.27c0-0.899-0.66-1.29-1.699-1.29
	c-0.44,0-0.7,0.03-0.85,0.07v2.589H8.064z M7.175,7.347c0.19,0.04,0.459,0.05,0.81,0.05c1.049,0,1.989-0.41,1.989-1.56
	c0-1.139-0.989-1.559-1.999-1.559H7.175V7.347z"/>
<path d="M15.684,6.697c0,0.449,0.01,0.919,0.08,1.299h-0.76l-0.08-0.699h-0.03c-0.28,0.43-0.84,0.819-1.609,0.819
	c-1.039,0-1.589-0.76-1.589-1.55c0-1.309,1.139-2.019,3.158-2.009c0-0.459,0-1.499-1.239-1.499c-0.47,0-0.959,0.13-1.33,0.39
	l-0.2-0.569c0.44-0.29,1.049-0.46,1.659-0.46c1.539,0,1.939,1.09,1.939,2.169V6.697z M14.864,5.168
	c-1.029,0-2.318,0.149-2.318,1.299c0,0.7,0.439,1.01,0.939,1.01c0.81,0,1.379-0.62,1.379-1.279V5.168z"/>
<path d="M20.963,7.796c-0.24,0.12-0.78,0.311-1.479,0.311c-1.56,0-2.589-1.109-2.589-2.779c0-1.679,1.109-2.908,2.789-2.908
	c0.61,0,1.099,0.18,1.309,0.29l-0.21,0.67c-0.229-0.13-0.589-0.28-1.119-0.28c-1.259,0-1.919,1.01-1.919,2.179
	c0,1.319,0.79,2.149,1.889,2.149c0.54,0,0.909-0.15,1.179-0.271L20.963,7.796z"/>
<path d="M26.353,7.996h-1.02l-1.879-2.688l-0.5,0.569v2.119h-0.83V0h0.83v5.088h0.02c0.13-0.19,0.32-0.43,0.47-0.609l1.629-1.93h1
	l-2.049,2.249L26.353,7.996z"/>
<path d="M91.483,7.996h-4.018V0.38h3.848v0.7h-3.018v2.578h2.838v0.689h-2.838v2.949h3.188V7.996z"/>
<path d="M97.083,6.646c0,0.44,0.02,0.979,0.04,1.35h-0.74l-0.04-0.93h-0.03c-0.28,0.57-0.9,1.05-1.779,1.05
	c-1.259,0-2.239-1.09-2.239-2.769c0-1.839,1.08-2.919,2.349-2.919c0.8,0,1.339,0.391,1.589,0.84h0.02V0h0.83V6.646z M96.254,4.728
	c0-1.089-0.77-1.629-1.469-1.629c-1.029,0-1.639,0.96-1.639,2.209c0,1.149,0.54,2.129,1.609,2.129c0.9,0,1.5-0.79,1.5-1.659V4.728z"
	/>
<path d="M99.136,1.59c-0.32,0-0.54-0.25-0.54-0.57c0-0.31,0.23-0.56,0.55-0.56c0.33,0,0.54,0.25,0.54,0.56
	C99.685,1.37,99.456,1.59,99.136,1.59z M99.555,7.996h-0.83V2.549h0.83V7.996z"/>
<path d="M101.426,1.56l0.819-0.28v1.27h1.409v0.65h-1.409v3.147c0,0.69,0.21,1.069,0.74,1.069c0.25,0,0.42-0.029,0.56-0.079
	l0.05,0.64c-0.18,0.079-0.459,0.13-0.809,0.13c-1.319,0-1.359-1.2-1.359-1.779V3.199h-0.84v-0.65h0.84V1.56z"/>
<rect y="20.012" fill="#3AAEE4" width="110" height="30"/>
<path fill="#FFFFFF" d="M9.384,29.576c-0.176-0.112-0.56-0.28-1.071-0.28c-0.848,0-1.167,0.52-1.167,0.96
	c0,0.6,0.368,0.903,1.184,1.247c0.983,0.416,1.487,0.919,1.487,1.791c0,0.968-0.704,1.711-2.015,1.711
	c-0.552,0-1.151-0.168-1.455-0.384l0.184-0.552c0.328,0.216,0.816,0.376,1.312,0.376c0.815,0,1.295-0.439,1.295-1.096
	c0-0.6-0.328-0.967-1.12-1.287c-0.919-0.344-1.543-0.88-1.543-1.719c0-0.928,0.751-1.607,1.863-1.607
	c0.576,0,1.016,0.144,1.248,0.288L9.384,29.576z"/>
<path fill="#FFFFFF" d="M13.943,34.733c-0.248,0.12-0.703,0.271-1.367,0.271c-1.271,0-2.031-0.896-2.031-2.198
	c0-1.368,0.768-2.352,1.943-2.352c1.343,0,1.687,1.231,1.687,1.991c0,0.152-0.008,0.264-0.016,0.368h-2.966
	c0.008,1.207,0.695,1.663,1.479,1.663c0.543,0,0.872-0.112,1.143-0.225L13.943,34.733z M13.52,32.318
	c0.008-0.592-0.24-1.359-1.096-1.359c-0.799,0-1.151,0.76-1.215,1.359H13.52z"/>
<path fill="#FFFFFF" d="M17.16,31.119c-0.072-0.008-0.144-0.016-0.24-0.016c-0.72,0-1.087,0.711-1.087,1.447v2.366h-0.664v-3.055
	c0-0.464-0.008-0.887-0.032-1.303h0.584l0.032,0.839h0.024c0.192-0.543,0.648-0.935,1.184-0.935c0.072,0,0.128,0.016,0.2,0.023
	V31.119z"/>
<path fill="#FFFFFF" d="M21.288,30.56l-1.655,4.357h-0.624l-1.607-4.365h0.711l0.872,2.534c0.136,0.392,0.256,0.76,0.352,1.119
	h0.024c0.096-0.359,0.224-0.728,0.36-1.119l0.864-2.526H21.288z"/>
<path fill="#FFFFFF" d="M22.369,29.792c-0.256,0-0.432-0.2-0.432-0.456c0-0.248,0.184-0.447,0.439-0.447
	c0.264,0,0.432,0.199,0.432,0.447C22.809,29.616,22.625,29.792,22.369,29.792z M22.705,34.917h-0.664V30.56h0.664V34.917z"/>
<path fill="#FFFFFF" d="M26.968,34.757c-0.192,0.097-0.624,0.248-1.184,0.248c-1.247,0-2.071-0.888-2.071-2.223
	c0-1.344,0.888-2.327,2.231-2.327c0.488,0,0.879,0.145,1.047,0.232l-0.168,0.535c-0.184-0.104-0.472-0.224-0.896-0.224
	c-1.007,0-1.535,0.808-1.535,1.743c0,1.056,0.632,1.719,1.511,1.719c0.432,0,0.728-0.119,0.943-0.216L26.968,34.757z"/>
<path fill="#FFFFFF" d="M30.983,34.733c-0.248,0.12-0.703,0.271-1.367,0.271c-1.271,0-2.031-0.896-2.031-2.198
	c0-1.368,0.768-2.352,1.943-2.352c1.343,0,1.687,1.231,1.687,1.991c0,0.152-0.008,0.264-0.016,0.368h-2.966
	c0.008,1.207,0.695,1.663,1.479,1.663c0.543,0,0.872-0.112,1.143-0.225L30.983,34.733z M30.56,32.318
	c0.008-0.592-0.24-1.359-1.096-1.359c-0.799,0-1.151,0.76-1.215,1.359H30.56z"/>
<path fill="#FFFFFF" d="M37.559,34.917h-0.664v-2.574c0-0.712-0.256-1.336-1.016-1.336c-0.567,0-1.143,0.48-1.143,1.239v2.671
	h-0.664v-3.238c0-0.447-0.016-0.775-0.032-1.127h0.592l0.04,0.711h0.016c0.216-0.424,0.719-0.808,1.399-0.808
	c0.544,0,1.471,0.328,1.471,1.808V34.917z"/>
<path fill="#FFFFFF" d="M41.704,33.878c0,0.359,0.008,0.735,0.064,1.039H41.16l-0.064-0.56h-0.024
	c-0.224,0.344-0.671,0.655-1.287,0.655c-0.832,0-1.271-0.607-1.271-1.239c0-1.047,0.912-1.615,2.527-1.607
	c0-0.367,0-1.199-0.992-1.199c-0.376,0-0.768,0.104-1.063,0.313l-0.16-0.456c0.352-0.231,0.839-0.368,1.327-0.368
	c1.231,0,1.551,0.872,1.551,1.735V33.878z M41.048,32.654c-0.824,0-1.855,0.12-1.855,1.039c0,0.56,0.352,0.808,0.751,0.808
	c0.647,0,1.104-0.495,1.104-1.023V32.654z"/>
<path fill="#FFFFFF" d="M48.917,34.917h-0.656v-2.519c0-0.848-0.304-1.392-0.959-1.392c-0.536,0-1.023,0.504-1.023,1.168v2.742
	h-0.656V32.23c0-0.695-0.295-1.224-0.911-1.224c-0.568,0-1.071,0.56-1.071,1.239v2.671h-0.656v-3.238
	c0-0.447-0.016-0.768-0.032-1.127h0.584l0.04,0.703h0.024c0.24-0.424,0.64-0.8,1.327-0.8c0.567,0,1.007,0.353,1.191,0.872h0.016
	c0.288-0.52,0.728-0.872,1.399-0.872c0.536,0,1.383,0.344,1.383,1.84V34.917z"/>
<path fill="#FFFFFF" d="M53.295,34.733c-0.248,0.12-0.703,0.271-1.367,0.271c-1.271,0-2.031-0.896-2.031-2.198
	c0-1.368,0.768-2.352,1.943-2.352c1.343,0,1.687,1.231,1.687,1.991c0,0.152-0.008,0.264-0.016,0.368h-2.966
	c0.008,1.207,0.695,1.663,1.479,1.663c0.543,0,0.872-0.112,1.143-0.225L53.295,34.733z M52.872,32.318
	c0.008-0.592-0.24-1.359-1.096-1.359c-0.799,0-1.151,0.76-1.215,1.359H52.872z"/>
<path opacity="0.4" fill="#1B1617" d="M79.43,56.139c-1.009,0-1.952,0.273-2.769,0.742c-0.485-2.574-2.744-4.523-5.462-4.523
	c-1.103,0-2.126,0.324-2.99,0.879c-0.808-2.076-2.82-3.547-5.179-3.547c-1.035,0-2,0.287-2.83,0.779V37.464
	c0-3.07-2.491-5.561-5.561-5.561c-3.071,0-5.56,2.49-5.56,5.561v25.087l-1.97-2.215c-2.037-2.297-5.551-2.504-7.848-0.465
	c-2.296,2.039-2.504,5.555-0.465,7.85l12.129,13.656c2.439,2.389,6.6,4.646,10.176,4.646h11.944c6.599,0,11.948-4.787,11.948-10.695
	L84.99,61.7C84.99,58.629,82.499,56.139,79.43,56.139L79.43,56.139z M79.43,56.139"/>
</svg>
