<?xml version="1.0" encoding="utf-8"?>
<!-- Generator: Adobe Illustrator 14.0.0, SVG Export Plug-In  -->
<!DOCTYPE svg PUBLIC "-//W3C//DTD SVG 1.1//EN" "http://www.w3.org/Graphics/SVG/1.1/DTD/svg11.dtd" [
	<!ENTITY ns_flows "http://ns.adobe.com/Flows/1.0/">
]>
<svg version="1.1"
	 xmlns="http://www.w3.org/2000/svg" xmlns:xlink="http://www.w3.org/1999/xlink" xmlns:a="http://ns.adobe.com/AdobeSVGViewerExtensions/3.0/"
	 x="0px" y="0px" width="300px" height="300px" viewBox="-51 -50 300 300" enable-background="new -51 -50 300 300"
	 xml:space="preserve">
<defs>
</defs>
<path fill="#3C3535" d="M50,198c0,1.104-0.56,2-1.25,2H1.25C0.56,200,0,199.104,0,198V2c0-1.104,0.56-2,1.25-2h47.5
	C49.44,0,50,0.896,50,2V198z"/>
<g>
	<g>
		<path fill="#FFFFFF" d="M25,11.5c5.79,0,10.5,4.71,10.5,10.5S30.79,32.5,25,32.5S14.5,27.79,14.5,22S19.21,11.5,25,11.5 M25,9.5
			c-6.899,0-12.5,5.598-12.5,12.5c0,6.903,5.601,12.5,12.5,12.5c6.897,0,12.5-5.597,12.5-12.5C37.5,15.098,31.897,9.5,25,9.5L25,9.5
			z"/>
	</g>
</g>
<g>
	<polygon fill="#FFFFFF" points="25.63,20.245 29.869,20.245 29.869,23.755 25.63,23.755 25.63,27.047 20.13,22 25.63,16.953 	"/>
</g>
<g>
	<g>
		<path fill="#FFFFFF" d="M25,49.5c5.79,0,10.5,4.71,10.5,10.5S30.79,70.5,25,70.5S14.5,65.79,14.5,60S19.21,49.5,25,49.5 M25,47.5
			c-6.897,0-12.5,5.598-12.5,12.5c0,6.903,5.603,12.5,12.5,12.5c6.899,0,12.5-5.597,12.5-12.5C37.5,53.098,31.899,47.5,25,47.5
			L25,47.5z"/>
	</g>
</g>
<g>
	<polygon fill="#FFFFFF" points="24.37,58.245 20.131,58.245 20.131,61.755 24.37,61.755 24.37,65.047 29.87,60 24.37,54.953 	"/>
</g>
<g>
	<g>
		<rect x="14" y="101.832" fill="#FFFFFF" width="9.166" height="9.168"/>
		<polygon fill="#FFFFFF" points="31.416,100 32.334,100 32.334,92.667 25,92.667 25,93.583 30.813,93.583 24.039,100.357 
			24.688,101.005 31.416,94.276 		"/>
		<polygon fill="#FFFFFF" points="14,89 14,100 14.916,100 14.916,89.917 35.084,89.917 35.084,110.083 25,110.083 25,111 36,111 
			36,89 		"/>
	</g>
</g>
<path fill="#FFFFFF" d="M33.532,134.878c0-1.226-1.219-1.226-1.219-1.226H17.687c0,0-1.219,0-1.219,1.226v1.224h17.064V134.878z
	 M29.874,131.204h-9.75c0,0-1.218,0-1.218,1.226h12.188C31.094,131.204,29.874,131.204,29.874,131.204z M35.969,136.102
	c-0.722-0.725-0.722-0.725-0.722-0.725v1.951H14.752v-1.951c0,0,0,0-0.722,0.725s-1.239,0.918-0.946,2.45
	c0.288,1.524,1.689,9.889,1.892,11.019c0.23,1.242,1.492,1.226,1.492,1.226h17.064c0,0,1.262,0.016,1.492-1.226
	c0.209-1.13,1.604-9.494,1.891-11.019C37.209,137.021,36.691,136.827,35.969,136.102L35.969,136.102z M29.874,142.714
	c0,0,0,1.226-1.22,1.226h-7.311c-1.218,0-1.218-1.226-1.218-1.226v-2.449h1.707v1.961h6.333v-1.961h1.71v2.449H29.874z"/>
<path fill="#FFFFFF" d="M25,166.338c-6.903,0-12.5,5.597-12.5,12.5s5.597,12.5,12.5,12.5s12.5-5.597,12.5-12.5
	S31.903,166.338,25,166.338z M31.133,182.141l-2.83,2.83L25,181.667l-3.303,3.303l-2.83-2.83l3.303-3.303l-3.303-3.302l2.83-2.831
	L25,176.008l3.303-3.303l2.83,2.832l-3.304,3.302L31.133,182.141z"/>
<path fill="#00A0E9" d="M68.754,60.464c0.944,0.304,1.505,1.216,1.793,2.545c0.384,1.761,0.656,2.833,0.896,3.297h-1.377
	c-0.191-0.352-0.464-1.425-0.784-2.945c-0.352-1.697-1.024-2.449-2.465-2.449h-1.488v5.394H64V54.286
	c0.753-0.16,1.809-0.256,2.77-0.256c1.584,0,2.625,0.32,3.345,0.992c0.576,0.528,0.913,1.361,0.913,2.273
	c0,1.617-0.977,2.657-2.273,3.121V60.464z M66.897,59.888c1.696,0,2.785-0.96,2.785-2.433c0-1.809-1.36-2.369-2.85-2.369
	c-0.72,0-1.232,0.064-1.504,0.128v4.674H66.897z"/>
<path fill="#00A0E9" d="M79.347,65.938c-0.496,0.24-1.409,0.544-2.737,0.544c-2.545,0-4.065-1.793-4.065-4.402
	c0-2.737,1.536-4.706,3.89-4.706c2.688,0,3.377,2.465,3.377,3.986c0,0.304-0.016,0.528-0.032,0.736H73.84
	c0.017,2.417,1.393,3.329,2.962,3.329c1.088,0,1.744-0.224,2.289-0.448L79.347,65.938z M78.498,61.104
	c0.017-1.185-0.48-2.721-2.192-2.721c-1.601,0-2.306,1.521-2.434,2.721H78.498z"/>
<path fill="#00A0E9" d="M88.835,64.146c0,0.704,0.032,1.568,0.063,2.161h-1.184l-0.064-1.489h-0.048
	c-0.448,0.913-1.44,1.681-2.85,1.681c-2.017,0-3.585-1.745-3.585-4.434c0-2.945,1.729-4.674,3.762-4.674
	c1.28,0,2.145,0.624,2.545,1.344h0.031v-5.234h1.329V64.146z M87.506,61.073c0-1.745-1.232-2.609-2.353-2.609
	c-1.648,0-2.625,1.537-2.625,3.538c0,1.841,0.864,3.409,2.577,3.409c1.44,0,2.4-1.264,2.4-2.657V61.073z"/>
<path fill="#00A0E9" d="M98.867,61.873c0,3.249-2.145,4.625-4.082,4.625c-2.24,0-3.97-1.681-3.97-4.498
	c0-2.977,1.857-4.626,4.082-4.626C97.282,57.375,98.867,59.2,98.867,61.873z M94.85,58.416c-1.889,0-2.673,1.856-2.673,3.538
	c0,1.937,1.072,3.505,2.641,3.505c1.585,0,2.689-1.569,2.689-3.538C97.507,60.368,96.754,58.416,94.85,58.416z"/>
<path fill="#00A0E9" d="M72.403,23.409c0,3.666-1.889,5.09-4.321,5.09c-2.273,0-4.082-1.328-4.082-5.01v-7.363h1.329v7.379
	c0,2.769,1.216,3.889,2.816,3.889c1.761,0,2.93-1.184,2.93-3.889v-7.379h1.328V23.409z"/>
<path fill="#00A0E9" d="M82.051,28.307h-1.328v-5.154c0-1.424-0.513-2.673-2.033-2.673c-1.136,0-2.289,0.96-2.289,2.481v5.346
	h-1.328v-6.482c0-0.896-0.032-1.553-0.064-2.257h1.185l0.08,1.425h0.032c0.433-0.848,1.44-1.617,2.801-1.617
	c1.089,0,2.945,0.656,2.945,3.618V28.307z"/>
<path fill="#00A0E9" d="M91.667,26.146c0,0.704,0.032,1.568,0.063,2.161h-1.184l-0.064-1.489h-0.048
	c-0.448,0.913-1.44,1.681-2.85,1.681c-2.017,0-3.585-1.745-3.585-4.434c0-2.945,1.729-4.674,3.762-4.674
	c1.28,0,2.145,0.624,2.545,1.344h0.031v-5.234h1.329V26.146z M90.338,23.073c0-1.745-1.232-2.609-2.353-2.609
	c-1.648,0-2.625,1.537-2.625,3.538c0,1.841,0.864,3.409,2.577,3.409c1.44,0,2.4-1.264,2.4-2.657V23.073z"/>
<path fill="#00A0E9" d="M101.699,23.873c0,3.249-2.145,4.625-4.082,4.625c-2.24,0-3.97-1.681-3.97-4.498
	c0-2.977,1.857-4.626,4.082-4.626C100.114,19.375,101.699,21.2,101.699,23.873z M97.682,20.416c-1.889,0-2.673,1.856-2.673,3.538
	c0,1.937,1.072,3.505,2.641,3.505c1.585,0,2.689-1.569,2.689-3.538C100.339,22.368,99.586,20.416,97.682,20.416z"/>
<path fill="#00A0E9" d="M68.754,100.208c0.944,0.304,1.505,1.216,1.793,2.545c0.384,1.761,0.656,2.833,0.896,3.297h-1.377
	c-0.191-0.352-0.464-1.425-0.784-2.945c-0.352-1.697-1.024-2.449-2.465-2.449h-1.488v5.394H64V94.029
	c0.753-0.16,1.809-0.256,2.77-0.256c1.584,0,2.625,0.32,3.345,0.992c0.576,0.528,0.913,1.361,0.913,2.273
	c0,1.617-0.977,2.657-2.273,3.121V100.208z M66.897,99.632c1.696,0,2.785-0.96,2.785-2.433c0-1.809-1.36-2.369-2.85-2.369
	c-0.72,0-1.232,0.064-1.504,0.128v4.674H66.897z"/>
<path fill="#00A0E9" d="M79.347,105.682c-0.496,0.24-1.409,0.544-2.737,0.544c-2.545,0-4.065-1.793-4.065-4.402
	c0-2.737,1.536-4.706,3.89-4.706c2.688,0,3.377,2.465,3.377,3.986c0,0.304-0.016,0.528-0.032,0.736H73.84
	c0.017,2.417,1.393,3.329,2.962,3.329c1.088,0,1.744-0.224,2.289-0.448L79.347,105.682z M78.498,100.848
	c0.016-1.185-0.48-2.721-2.192-2.721c-1.601,0-2.306,1.521-2.434,2.721H78.498z"/>
<path fill="#00A0E9" d="M85.874,98.655c-0.32-0.208-0.913-0.512-1.697-0.512c-0.96,0-1.473,0.592-1.473,1.296
	c0,0.752,0.496,1.104,1.617,1.585c1.408,0.576,2.225,1.313,2.225,2.625c0,1.553-1.185,2.577-3.089,2.577
	c-0.864,0-1.697-0.24-2.289-0.592l0.368-1.024c0.464,0.272,1.216,0.592,1.969,0.592c1.168,0,1.744-0.625,1.744-1.409
	c0-0.816-0.464-1.265-1.616-1.729c-1.473-0.592-2.225-1.408-2.225-2.465c0-1.36,1.088-2.481,2.849-2.481
	c0.833,0,1.537,0.24,2.001,0.528L85.874,98.655z"/>
<path fill="#00A0E9" d="M89.232,95.79c-0.512,0-0.864-0.4-0.864-0.912c0-0.497,0.368-0.896,0.88-0.896
	c0.528,0,0.865,0.4,0.865,0.896C90.113,95.438,89.745,95.79,89.232,95.79z M89.904,106.05h-1.328v-8.724h1.328V106.05z"/>
<path fill="#00A0E9" d="M98.194,97.327v0.849l-3.985,5.442c-0.337,0.464-0.656,0.88-1.009,1.313v0.032h5.042v1.088h-6.707v-0.8
	l4.018-5.474c0.353-0.464,0.673-0.88,1.041-1.329v-0.032h-4.69v-1.088H98.194z"/>
<path fill="#00A0E9" d="M106.034,105.682c-0.496,0.24-1.409,0.544-2.737,0.544c-2.545,0-4.065-1.793-4.065-4.402
	c0-2.737,1.536-4.706,3.89-4.706c2.688,0,3.377,2.465,3.377,3.986c0,0.304-0.016,0.528-0.032,0.736h-5.938
	c0.017,2.417,1.393,3.329,2.962,3.329c1.088,0,1.744-0.224,2.289-0.448L106.034,105.682z M105.186,100.848
	c0.016-1.185-0.48-2.721-2.192-2.721c-1.601,0-2.306,1.521-2.434,2.721H105.186z"/>
<path fill="#00A0E9" d="M68.691,178.614c1.152,0.272,2.512,1.232,2.512,3.073c0,1.088-0.416,1.857-0.977,2.401
	c-0.816,0.801-2.129,1.153-3.969,1.153c-1.008,0-1.762-0.08-2.258-0.128v-11.989c0.674-0.144,1.633-0.256,2.625-0.256
	c1.506,0,2.498,0.288,3.219,0.896c0.576,0.496,0.912,1.2,0.912,2.113c0,1.2-0.816,2.241-2.064,2.689V178.614z M66.754,178.166
	c1.617,0,2.656-0.928,2.656-2.177v-0.016c0-1.44-1.057-2.064-2.721-2.064c-0.703,0-1.121,0.048-1.359,0.112v4.146H66.754z
	 M65.33,184.104c0.303,0.064,0.736,0.08,1.295,0.08c1.682,0,3.186-0.656,3.186-2.497c0-1.825-1.584-2.497-3.201-2.497H65.33V184.104
	z"/>
<path fill="#00A0E9" d="M78.947,183.063c0,0.721,0.016,1.473,0.129,2.081h-1.217l-0.129-1.121h-0.047
	c-0.449,0.688-1.346,1.313-2.578,1.313c-1.664,0-2.545-1.216-2.545-2.481c0-2.097,1.824-3.233,5.059-3.217
	c0-0.736,0-2.401-1.984-2.401c-0.754,0-1.537,0.208-2.129,0.625l-0.32-0.913c0.703-0.464,1.68-0.736,2.656-0.736
	c2.465,0,3.105,1.745,3.105,3.474V183.063z M77.635,180.615c-1.648,0-3.713,0.24-3.713,2.081c0,1.121,0.703,1.617,1.504,1.617
	c1.297,0,2.209-0.992,2.209-2.049V180.615z"/>
<path fill="#00A0E9" d="M87.395,184.824c-0.385,0.192-1.248,0.497-2.369,0.497c-2.496,0-4.145-1.777-4.145-4.45
	c0-2.689,1.775-4.658,4.465-4.658c0.977,0,1.762,0.288,2.098,0.464l-0.336,1.072c-0.369-0.208-0.945-0.448-1.793-0.448
	c-2.018,0-3.074,1.617-3.074,3.49c0,2.113,1.266,3.441,3.025,3.441c0.865,0,1.457-0.24,1.889-0.432L87.395,184.824z"/>
<path fill="#00A0E9" d="M96.02,185.145h-1.633l-3.01-4.306l-0.801,0.912v3.394h-1.328v-12.805h1.328v8.147h0.033
	c0.207-0.304,0.512-0.688,0.752-0.977l2.609-3.089h1.6l-3.281,3.602L96.02,185.145z"/>
<path fill="#00A0E9" d="M73.604,145.618h-1.408l-1.313-3.954h-4.242l-1.28,3.954H64l4.033-12.197h1.537L73.604,145.618z
	 M70.61,140.607l-1.2-3.617c-0.257-0.832-0.465-1.601-0.624-2.32h-0.049c-0.16,0.736-0.384,1.504-0.607,2.272l-1.217,3.665H70.61z"
	/>
<path fill="#00A0E9" d="M82.371,143.457c0,0.704,0.032,1.568,0.063,2.161h-1.184l-0.064-1.489h-0.048
	c-0.448,0.913-1.44,1.681-2.85,1.681c-2.017,0-3.585-1.744-3.585-4.434c0-2.945,1.729-4.674,3.762-4.674
	c1.28,0,2.145,0.624,2.545,1.345h0.031v-5.234h1.329V143.457z M81.042,140.384c0-1.745-1.232-2.609-2.353-2.609
	c-1.648,0-2.625,1.537-2.625,3.538c0,1.841,0.864,3.409,2.577,3.409c1.44,0,2.4-1.265,2.4-2.657V140.384z"/>
<path fill="#00A0E9" d="M92.035,143.457c0,0.704,0.032,1.568,0.063,2.161h-1.184l-0.064-1.489h-0.048
	c-0.448,0.913-1.44,1.681-2.85,1.681c-2.017,0-3.585-1.744-3.585-4.434c0-2.945,1.729-4.674,3.762-4.674
	c1.28,0,2.145,0.624,2.545,1.345h0.031v-5.234h1.329V143.457z M90.706,140.384c0-1.745-1.232-2.609-2.353-2.609
	c-1.648,0-2.625,1.537-2.625,3.538c0,1.841,0.864,3.409,2.577,3.409c1.44,0,2.4-1.265,2.4-2.657V140.384z"/>
<path fill="#00A0E9" d="M105.362,145.618h-1.328v-5.154c0-1.425-0.513-2.673-2.033-2.673c-1.136,0-2.289,0.96-2.289,2.48v5.347
	h-1.328v-6.482c0-0.896-0.032-1.553-0.064-2.258h1.185l0.08,1.425h0.032c0.433-0.848,1.44-1.616,2.801-1.616
	c1.089,0,2.945,0.656,2.945,3.617V145.618z"/>
<path fill="#00A0E9" d="M113.649,143.537c0,0.721,0.017,1.473,0.129,2.081h-1.217l-0.128-1.121h-0.048
	c-0.448,0.688-1.345,1.313-2.577,1.313c-1.665,0-2.545-1.216-2.545-2.48c0-2.097,1.824-3.233,5.058-3.218c0-0.736,0-2.4-1.984-2.4
	c-0.753,0-1.537,0.208-2.129,0.624l-0.32-0.912c0.704-0.465,1.681-0.736,2.657-0.736c2.465,0,3.104,1.744,3.104,3.474V143.537z
	 M112.337,141.088c-1.648,0-3.713,0.24-3.713,2.081c0,1.12,0.704,1.616,1.505,1.616c1.296,0,2.208-0.992,2.208-2.049V141.088z"/>
<path fill="#00A0E9" d="M128.085,145.618h-1.313v-5.042c0-1.697-0.608-2.785-1.921-2.785c-1.072,0-2.049,1.008-2.049,2.337v5.49
	h-1.313v-5.379c0-1.392-0.593-2.448-1.825-2.448c-1.136,0-2.145,1.12-2.145,2.48v5.347h-1.313v-6.482
	c0-0.896-0.032-1.537-0.064-2.258h1.169l0.08,1.409h0.048c0.48-0.849,1.28-1.601,2.657-1.601c1.137,0,2.017,0.704,2.385,1.744h0.032
	c0.576-1.04,1.456-1.744,2.801-1.744c1.072,0,2.77,0.688,2.77,3.682V145.618z"/>
<path fill="#00A0E9" d="M136.835,145.25c-0.496,0.24-1.409,0.544-2.737,0.544c-2.545,0-4.065-1.793-4.065-4.401
	c0-2.737,1.536-4.706,3.89-4.706c2.688,0,3.377,2.465,3.377,3.985c0,0.304-0.016,0.528-0.032,0.736h-5.938
	c0.017,2.417,1.393,3.329,2.962,3.329c1.088,0,1.744-0.224,2.289-0.448L136.835,145.25z M135.986,140.416
	c0.017-1.185-0.48-2.722-2.192-2.722c-1.601,0-2.306,1.521-2.434,2.722H135.986z"/>
<path fill="#00A0E9" d="M148.722,143.537c0,0.721,0.017,1.473,0.129,2.081h-1.217l-0.128-1.121h-0.048
	c-0.448,0.688-1.345,1.313-2.577,1.313c-1.665,0-2.545-1.216-2.545-2.48c0-2.097,1.824-3.233,5.058-3.218c0-0.736,0-2.4-1.984-2.4
	c-0.753,0-1.537,0.208-2.129,0.624l-0.32-0.912c0.704-0.465,1.681-0.736,2.657-0.736c2.465,0,3.104,1.744,3.104,3.474V143.537z
	 M147.409,141.088c-1.648,0-3.713,0.24-3.713,2.081c0,1.12,0.704,1.616,1.505,1.616c1.296,0,2.208-0.992,2.208-2.049V141.088z"/>
<path fill="#00A0E9" d="M158.259,145.618h-1.328v-5.154c0-1.425-0.513-2.673-2.033-2.673c-1.136,0-2.289,0.96-2.289,2.48v5.347
	h-1.328v-6.482c0-0.896-0.032-1.553-0.064-2.258h1.185l0.08,1.425h0.032c0.433-0.848,1.44-1.616,2.801-1.616
	c1.089,0,2.945,0.656,2.945,3.617V145.618z"/>
<path fill="#00A0E9" d="M167.875,143.457c0,0.704,0.032,1.568,0.063,2.161h-1.184l-0.064-1.489h-0.048
	c-0.448,0.913-1.44,1.681-2.85,1.681c-2.017,0-3.585-1.744-3.585-4.434c0-2.945,1.729-4.674,3.762-4.674
	c1.28,0,2.145,0.624,2.545,1.345h0.031v-5.234h1.329V143.457z M166.546,140.384c0-1.745-1.232-2.609-2.353-2.609
	c-1.648,0-2.625,1.537-2.625,3.538c0,1.841,0.864,3.409,2.577,3.409c1.44,0,2.4-1.265,2.4-2.657V140.384z"/>
<path fill="#00A0E9" d="M181.059,143.297c0,0.896,0.048,1.648,0.08,2.321h-1.201l-0.063-1.377h-0.048
	c-0.4,0.688-1.297,1.568-2.785,1.568c-1.313,0-2.865-0.752-2.865-3.761v-5.154h1.328v4.914c0,1.696,0.496,2.881,1.953,2.881
	c1.04,0,2.272-0.832,2.272-2.369v-5.426h1.329V143.297z"/>
<path fill="#00A0E9" d="M184.929,138.367c0.607-1.072,1.616-1.681,2.977-1.681c2.065,0,3.554,1.776,3.554,4.449
	c0,3.201-1.873,4.674-3.794,4.674c-1.152,0-2.112-0.527-2.625-1.393h-0.032v4.771h-1.328v-9.492c0-1.137-0.032-2.017-0.064-2.817
	h1.201l0.08,1.489H184.929z M185.008,142.145c0,1.696,1.265,2.593,2.449,2.593c1.713,0,2.657-1.473,2.657-3.553
	c0-1.81-0.912-3.41-2.609-3.41c-1.488,0-2.497,1.44-2.497,2.705V142.145z"/>
<path fill="#00A0E9" d="M194.784,145.618h-1.328v-12.806h1.328V145.618z"/>
<path fill="#00A0E9" d="M204.835,141.185c0,3.249-2.145,4.625-4.082,4.625c-2.24,0-3.97-1.681-3.97-4.497
	c0-2.978,1.857-4.626,4.082-4.626C203.25,136.687,204.835,138.511,204.835,141.185z M200.817,137.727
	c-1.889,0-2.673,1.856-2.673,3.537c0,1.938,1.072,3.506,2.641,3.506c1.585,0,2.689-1.568,2.689-3.537
	C203.475,139.68,202.722,137.727,200.817,137.727z"/>
<path fill="#00A0E9" d="M212.562,143.537c0,0.721,0.017,1.473,0.129,2.081h-1.217l-0.128-1.121h-0.048
	c-0.448,0.688-1.345,1.313-2.577,1.313c-1.665,0-2.545-1.216-2.545-2.48c0-2.097,1.824-3.233,5.058-3.218c0-0.736,0-2.4-1.984-2.4
	c-0.753,0-1.537,0.208-2.129,0.624l-0.32-0.912c0.704-0.465,1.681-0.736,2.657-0.736c2.465,0,3.104,1.744,3.104,3.474V143.537z
	 M211.249,141.088c-1.648,0-3.713,0.24-3.713,2.081c0,1.12,0.704,1.616,1.505,1.616c1.296,0,2.208-0.992,2.208-2.049V141.088z"/>
<path fill="#00A0E9" d="M222.163,143.457c0,0.704,0.032,1.568,0.063,2.161h-1.184l-0.064-1.489h-0.048
	c-0.448,0.913-1.44,1.681-2.85,1.681c-2.017,0-3.585-1.744-3.585-4.434c0-2.945,1.729-4.674,3.762-4.674
	c1.28,0,2.145,0.624,2.545,1.345h0.031v-5.234h1.329V143.457z M220.834,140.384c0-1.745-1.232-2.609-2.353-2.609
	c-1.648,0-2.625,1.537-2.625,3.538c0,1.841,0.864,3.409,2.577,3.409c1.44,0,2.4-1.265,2.4-2.657V140.384z"/>
</svg>
