<?xml version="1.0" encoding="utf-8"?>
<!-- Generator: Adobe Illustrator 14.0.0, SVG Export Plug-In  -->
<!DOCTYPE svg PUBLIC "-//W3C//DTD SVG 1.1//EN" "http://www.w3.org/Graphics/SVG/1.1/DTD/svg11.dtd" [
	<!ENTITY ns_flows "http://ns.adobe.com/Flows/1.0/">
]>
<svg version="1.1"
	 xmlns="http://www.w3.org/2000/svg" xmlns:xlink="http://www.w3.org/1999/xlink" xmlns:a="http://ns.adobe.com/AdobeSVGViewerExtensions/3.0/"
	 x="0px" y="0px" width="300px" height="300px" viewBox="-57.012 -16.625 300 300" enable-background="new -57.012 -16.625 300 300"
	 xml:space="preserve">
<defs>
</defs>
<path fill="#333333" d="M221.737,3.125h-1.774C218.245,1.212,215.761,0,212.987,0c-2.772,0-5.256,1.212-6.974,3.125h-1.775
	c-2.646,0-4.792,2.145-4.792,4.791v2.917c0,2.646,2.146,4.792,4.792,4.792h1.775c1.717,1.913,4.2,3.125,6.974,3.125
	c2.774,0,5.258-1.212,6.976-3.125h1.774c2.646,0,4.793-2.146,4.793-4.792V7.916C226.528,5.27,224.382,3.125,221.737,3.125z
	 M207.535,12.609h-1.529l-0.671-3.953l-0.655,3.953h-1.514l-1.435-6.416h1.716l0.499,3.751l0.655-3.75h1.514l0.64,3.75l0.516-3.768
	h1.685L207.535,12.609z M210.46,5.809c0.496,0,0.896,0.371,0.896,0.829s-0.402,0.829-0.896,0.829c-0.496,0-0.896-0.371-0.896-0.829
	C209.564,6.181,209.964,5.809,210.46,5.809z M209.672,7.937h1.544v4.64h-1.544V7.937z M225.487,10.833c0,2.065-1.683,3.75-3.75,3.75
	h-10.833c1.458,0,2.083-1.683,2.083-3.75V7.916c0-2.068,1.683-3.75,3.75-3.75h5c2.065,0,3.75,1.682,3.75,3.75V10.833L225.487,10.833
	z"/>
<rect x="221.716" y="7.937" fill="#333333" width="1.545" height="4.64"/>
<ellipse fill="#333333" cx="222.504" cy="6.638" rx="0.896" ry="0.829"/>
<polygon fill="#333333" points="215.631,6.195 220.764,6.195 220.764,7.702 217.284,7.702 217.284,9.125 220.42,9.125 
	220.42,10.616 217.284,10.616 217.284,12.561 215.631,12.561 "/>
<path fill="#00A0E9" d="M105.281,224.918l-0.667,2.494l-0.021,0.003l-0.727,2.725l-4.715-1.264l-0.057,0.015l-4.963-1.329
	l-0.009-0.033l-1.32-0.356l0.249-0.933l0.016,0.003l2.451-9.14l-0.017-0.002l0.26-0.964l8.672,2.328l0.008-0.029l2.391,0.637
	l-1.557,5.815L105.281,224.918z M105.61,219.778l-9.141-2.449l-1.805,6.736l9.139,2.449L105.61,219.778z M97.421,221.753
	l0.603,1.038l1.577-1.484l0.801,1.404l2.124-1.873l0.53,4.343l-7.011-1.882L97.421,221.753L97.421,221.753z M97.873,220.734
	c-0.4-0.109-0.634-0.519-0.529-0.915c0.106-0.4,0.517-0.637,0.915-0.529c0.4,0.104,0.635,0.514,0.529,0.914
	C98.681,220.604,98.271,220.838,97.873,220.734z M102.19,217.234l-0.21,0.055l-1.923-0.517l2.836-0.762l0.439,1.641l-1.109-0.299
	L102.19,217.234z M93.049,219.681l0.63,2.35l-0.515,1.927l-1.334-4.98l2.875-0.77l-0.299,1.111L93.049,219.681z M94.794,230.044
	l-0.514-1.927l3.853,1.033L94.794,230.044z"/>
<path fill="#00A0E9" d="M169.157,156.073l-0.667,2.494l-0.021,0.003l-0.727,2.725l-4.715-1.264l-0.057,0.015l-4.963-1.329
	l-0.009-0.033l-1.32-0.356l0.249-0.933l0.016,0.003l2.451-9.14l-0.017-0.002l0.26-0.964l8.672,2.328l0.008-0.029l2.391,0.637
	l-1.557,5.815L169.157,156.073z M169.486,150.933l-9.141-2.449l-1.805,6.736l9.139,2.449L169.486,150.933z M161.297,152.908
	l0.603,1.038l1.577-1.484l0.801,1.404l2.124-1.873l0.53,4.343l-7.011-1.882L161.297,152.908L161.297,152.908z M161.749,151.889
	c-0.4-0.109-0.634-0.519-0.529-0.915c0.106-0.4,0.517-0.637,0.915-0.529c0.4,0.104,0.635,0.514,0.529,0.914
	C162.557,151.759,162.147,151.994,161.749,151.889z M166.066,148.39l-0.21,0.055l-1.923-0.517l2.836-0.762l0.439,1.641l-1.109-0.299
	L166.066,148.39z M156.925,150.836l0.63,2.35l-0.515,1.927l-1.334-4.98l2.875-0.77l-0.299,1.111L156.925,150.836z M158.67,161.199
	l-0.514-1.927l3.853,1.033L158.67,161.199z"/>
<path fill="#00A0E9" d="M15.951,184.667l-0.667,2.494l-0.021,0.003l-0.727,2.725l-4.715-1.264l-0.057,0.015L4.8,187.31l-0.009-0.033
	l-1.32-0.356l0.249-0.933l0.016,0.003l2.451-9.14l-0.017-0.002l0.26-0.964l8.672,2.328l0.008-0.029l2.391,0.637l-1.557,5.815
	L15.951,184.667z M16.28,179.526l-9.141-2.449l-1.805,6.736l9.139,2.449L16.28,179.526z M8.092,181.501l0.603,1.038l1.577-1.484
	l0.801,1.404l2.124-1.873l0.53,4.343l-7.011-1.882L8.092,181.501L8.092,181.501z M8.543,180.482c-0.4-0.109-0.634-0.519-0.529-0.915
	c0.106-0.4,0.517-0.637,0.915-0.529c0.4,0.104,0.635,0.514,0.529,0.914C9.352,180.352,8.941,180.587,8.543,180.482z M12.86,176.983
	l-0.21,0.055l-1.923-0.517l2.836-0.762l0.439,1.641l-1.109-0.299L12.86,176.983z M3.72,179.43l0.63,2.35l-0.515,1.927l-1.334-4.98
	l2.875-0.77l-0.299,1.111L3.72,179.43z M5.464,189.792l-0.514-1.927l3.853,1.033L5.464,189.792z"/>
<path fill="#40555F" d="M93.317,26.676c-0.003,0-0.007,0-0.011,0c-0.002,0-0.003,0-0.005,0c-0.005,0-0.01,0.001-0.015,0.001
	c-6.891,0.017-12.47,5.606-12.47,12.499s5.579,12.482,12.47,12.499c0.005,0,0.01,0.001,0.015,0.001c0.002,0,0.003,0,0.005,0
	c0.004,0,0.008,0,0.011,0c6.902,0,12.5-5.598,12.5-12.5C105.817,32.272,100.22,26.676,93.317,26.676z M93.817,34.156
	c1.325-0.035,2.614-0.211,3.856-0.514c0.375,1.474,0.606,3.172,0.643,5.033h-4.499V34.156z M93.817,33.156v-5.401
	c1.349,0.373,2.714,2.171,3.584,4.926C96.246,32.959,95.049,33.121,93.817,33.156z M92.817,27.743v5.413
	c-1.241-0.035-2.449-0.2-3.612-0.482C90.082,29.9,91.461,28.097,92.817,27.743z M92.817,34.156v4.52h-4.53
	c0.036-1.863,0.27-3.564,0.644-5.039C90.182,33.942,91.481,34.12,92.817,34.156z M87.28,38.676h-5.45
	c0.11-2.57,1.068-4.926,2.602-6.791c1.113,0.613,2.294,1.115,3.531,1.49C87.559,34.971,87.316,36.768,87.28,38.676z M87.28,39.676
	c0.036,1.908,0.278,3.705,0.683,5.3c-1.236,0.376-2.418,0.878-3.531,1.491c-1.533-1.865-2.491-4.221-2.602-6.791H87.28z
	 M88.287,39.676h4.53v4.515c-1.336,0.036-2.636,0.214-3.888,0.521C88.556,43.237,88.323,41.538,88.287,39.676z M92.817,45.189v5.419
	c-1.358-0.354-2.737-2.16-3.614-4.936C90.367,45.39,91.576,45.225,92.817,45.189z M93.817,50.597v-5.407
	c1.231,0.035,2.43,0.198,3.585,0.477C96.532,48.424,95.166,50.224,93.817,50.597z M93.817,44.19v-4.515h4.499
	c-0.036,1.859-0.268,3.557-0.641,5.028C96.433,44.402,95.143,44.227,93.817,44.19z M99.323,39.676h5.481
	c-0.11,2.57-1.067,4.926-2.601,6.791c-1.122-0.618-2.313-1.124-3.562-1.5C99.045,43.373,99.287,41.58,99.323,39.676z M99.323,38.676
	c-0.036-1.906-0.278-3.701-0.682-5.295c1.247-0.377,2.438-0.882,3.56-1.499c1.535,1.866,2.492,4.222,2.604,6.794H99.323z
	 M101.512,31.118c-0.994,0.53-2.045,0.967-3.141,1.299c-0.585-1.881-1.406-3.415-2.376-4.423
	C98.124,28.504,100.025,29.605,101.512,31.118z M90.6,28.003c-0.965,1.007-1.781,2.534-2.364,4.405
	c-1.086-0.331-2.127-0.765-3.112-1.29C86.6,29.615,88.486,28.518,90.6,28.003z M85.119,47.23c0.986-0.527,2.028-0.961,3.115-1.292
	c0.582,1.874,1.399,3.403,2.365,4.41C88.485,49.834,86.598,48.734,85.119,47.23z M95.994,50.357
	c0.973-1.008,1.793-2.544,2.378-4.428c1.097,0.333,2.147,0.77,3.144,1.301C100.027,48.744,98.125,49.848,95.994,50.357z"/>
<path fill="#40555F" d="M107.718,101.331h-5.15l-0.394-9c0-0.249-0.202-0.45-0.45-0.45c-0.25,0-0.45,0.201-0.45,0.45l-0.394,9
	H78.917c-0.33,0-0.6,0.271-0.6,0.6v4.8c0,0.329,0.27,0.6,0.6,0.6h1.8v0.9h3.6v-0.9h18.037v0.9h3.601v-0.9h1.763
	c0.33,0,0.6-0.271,0.6-0.6v-4.8C108.317,101.602,108.048,101.331,107.718,101.331z M98.205,105.166
	c-0.463,0-0.837-0.375-0.837-0.835c0-0.463,0.375-0.836,0.837-0.836c0.461,0,0.835,0.375,0.835,0.836
	C99.042,104.793,98.666,105.166,98.205,105.166z M100.436,105.166c-0.464,0-0.836-0.375-0.836-0.835
	c0-0.463,0.374-0.836,0.836-0.836s0.834,0.375,0.834,0.836S100.896,105.166,100.436,105.166z M102.663,105.166
	c-0.461,0-0.836-0.375-0.836-0.835c0-0.463,0.375-0.836,0.836-0.836c0.462,0,0.835,0.375,0.835,0.836
	S103.125,105.166,102.663,105.166z M104.893,105.166c-0.463,0-0.836-0.375-0.836-0.835c0-0.463,0.374-0.836,0.836-0.836
	c0.46,0,0.835,0.375,0.835,0.836C105.729,104.793,105.353,105.166,104.893,105.166z"/>
<path fill="#40555F" d="M99.086,94.887c-0.738-0.668-1.164-1.623-1.164-2.618c0-0.996,0.425-1.95,1.167-2.619l-0.372-0.41
	c-0.855,0.773-1.347,1.875-1.347,3.027c0,1.151,0.49,2.256,1.347,3.027L99.086,94.887z"/>
<path fill="#40555F" d="M99.411,94.527l0.371-0.41c-0.522-0.473-0.821-1.145-0.821-1.848c0-0.702,0.299-1.376,0.821-1.848
	l-0.371-0.41c-0.639,0.575-1.003,1.399-1.003,2.258C98.408,93.128,98.772,93.95,99.411,94.527z"/>
<path fill="#40555F" d="M100.151,93.705l0.372-0.411c-0.58-0.523-0.58-1.529,0-2.052l-0.372-0.41
	c-0.406,0.367-0.637,0.891-0.637,1.438C99.515,92.814,99.746,93.339,100.151,93.705z"/>
<path fill="#40555F" d="M104.361,94.887l0.369,0.409c0.856-0.771,1.347-1.875,1.347-3.027s-0.49-2.255-1.347-3.027l-0.371,0.41
	c0.739,0.667,1.164,1.623,1.164,2.619C105.524,93.265,105.099,94.219,104.361,94.887z"/>
<path fill="#40555F" d="M103.665,94.117l0.371,0.41c0.637-0.577,1.003-1.399,1.003-2.258c0-0.859-0.366-1.682-1.003-2.258
	l-0.371,0.411c0.523,0.472,0.82,1.146,0.82,1.848C104.485,92.972,104.188,93.644,103.665,94.117z"/>
<path fill="#40555F" d="M103.294,93.705c0.406-0.365,0.638-0.891,0.638-1.437c0-0.547-0.232-1.07-0.638-1.438l-0.372,0.41
	c0.581,0.523,0.581,1.529,0,2.052L103.294,93.705z"/>
<polygon fill="#00A0E9" points="94.36,64.696 96.317,64.696 93.318,56.57 90.317,64.696 92.275,64.696 92.275,88.445 90.318,88.445 
	93.318,96.57 96.317,88.445 94.36,88.445 "/>
<polygon fill="#595757" points="98.817,80.373 95.013,76.57 98.815,72.768 97.12,71.07 93.317,74.873 89.515,71.07 87.817,72.768 
	91.62,76.57 87.817,80.373 89.515,82.07 93.317,78.268 97.12,82.07 "/>
<path fill="#13AE67" d="M17,166.824H3c-1.65,0-3,1.35-3,3v26c0,1.65,1.35,3,3,3h14c1.65,0,3-1.35,3-3v-26
	C20,168.174,18.65,166.824,17,166.824z M6,168.324h8v1H6V168.324z M10,196.824c-1.105,0-2-0.895-2-2s0.895-2,2-2s2,0.895,2,2
	S11.105,196.824,10,196.824z M18,190.824H2v-20h16V190.824z"/>
<path fill="#13AE67" d="M18.66,163.088v1.525c0.848-0.026,1.701,0.283,2.346,0.928c0.647,0.647,0.956,1.5,0.93,2.348l1.524-0.001
	c0.023-1.236-0.431-2.484-1.374-3.427C21.145,163.52,19.897,163.066,18.66,163.088z"/>
<path fill="#13AE67" d="M29.976,167.792c0-6.197-5.022-11.219-11.22-11.22c-0.032-0.001-0.063,0-0.094,0l-0.002,1.565
	c2.504-0.026,5.016,0.917,6.926,2.826c1.908,1.908,2.851,4.42,2.825,6.924l1.565-0.002
	C29.976,167.856,29.977,167.824,29.976,167.792z"/>
<path fill="#13AE67" d="M24.413,162.137c-1.512-1.512-3.521-2.342-5.656-2.345c-0.032,0.001-0.063,0.002-0.097,0.003l0,1.632
	c1.662-0.025,3.331,0.594,4.598,1.861c1.269,1.269,1.888,2.937,1.862,4.599l1.633,0.001c0-0.034,0.001-0.065,0.002-0.097
	C26.753,165.656,25.923,163.647,24.413,162.137z"/>
<path fill="#E83828" d="M106.33,207.075h-14c-1.65,0-3,1.35-3,3v26c0,1.65,1.35,3,3,3h14c1.65,0,3-1.35,3-3v-26
	C109.33,208.425,107.98,207.075,106.33,207.075z M95.33,208.575h8v1h-8V208.575z M99.33,237.075c-1.105,0-2-0.895-2-2s0.895-2,2-2
	s2,0.895,2,2S100.435,237.075,99.33,237.075z M107.33,231.075h-16v-20h16V231.075z"/>
<path fill="#E83828" d="M107.989,203.339v1.525c0.848-0.026,1.701,0.283,2.346,0.928c0.647,0.647,0.956,1.5,0.93,2.348l1.524-0.001
	c0.023-1.236-0.431-2.484-1.374-3.427C110.475,203.771,109.227,203.317,107.989,203.339z"/>
<path fill="#E83828" d="M119.305,208.044c0-6.197-5.022-11.219-11.22-11.22c-0.032-0.001-0.063,0-0.094,0l-0.002,1.565
	c2.504-0.026,5.016,0.917,6.926,2.826c1.908,1.908,2.851,4.42,2.825,6.924l1.565-0.002
	C119.305,208.107,119.307,208.076,119.305,208.044z"/>
<path fill="#E83828" d="M113.742,202.389c-1.512-1.512-3.521-2.342-5.656-2.345c-0.032,0.001-0.063,0.002-0.097,0.003l0,1.632
	c1.662-0.025,3.331,0.594,4.598,1.861c1.269,1.269,1.888,2.937,1.862,4.599l1.633,0.001c0-0.034,0.001-0.065,0.002-0.097
	C116.083,205.908,115.252,203.898,113.742,202.389z"/>
<path fill="#00A0E9" d="M173.318,138.23h-20c-1.65,0-3,1.35-3,3v26c0,1.65,1.35,3,3,3h20c1.65,0,3-1.35,3-3v-26
	C176.318,139.581,174.968,138.23,173.318,138.23z M163.318,169.23c-0.553,0-1-0.447-1-1s0.447-1,1-1s1,0.447,1,1
	S163.871,169.23,163.318,169.23z M172.318,166.23h-18v-24h18V166.23z"/>
<path fill="#00A0E9" d="M174.66,135.088v1.525c0.848-0.026,1.701,0.283,2.346,0.928c0.647,0.647,0.956,1.5,0.93,2.348l1.524-0.001
	c0.023-1.236-0.431-2.484-1.374-3.427C177.145,135.52,175.897,135.066,174.66,135.088z"/>
<path fill="#00A0E9" d="M185.976,139.792c0-6.197-5.022-11.219-11.22-11.22c-0.032-0.001-0.063,0-0.094,0l-0.002,1.565
	c2.504-0.026,5.016,0.917,6.926,2.826c1.908,1.908,2.851,4.42,2.825,6.924l1.565-0.002
	C185.976,139.856,185.977,139.824,185.976,139.792z"/>
<path fill="#00A0E9" d="M180.413,134.137c-1.512-1.512-3.521-2.342-5.656-2.345c-0.032,0.001-0.063,0.002-0.097,0.003l0,1.632
	c1.662-0.025,3.331,0.594,4.598,1.861c1.269,1.269,1.888,2.937,1.862,4.599l1.633,0.001c0-0.034,0.001-0.065,0.002-0.097
	C182.753,137.656,181.923,135.647,180.413,134.137z"/>
<path fill="#00A0E9" d="M77.086,169.775c-0.42,0.204-1.235,0.408-2.279,0.408c-2.351,0-4.246-1.523-4.246-4.617
	c0-2.951,1.835-4.786,4.51-4.786c1.091,0,1.727,0.228,2.015,0.372l-0.264,0.839c-0.42-0.204-1.008-0.372-1.727-0.372
	c-2.075,0-3.49,1.391-3.49,3.91c0,2.398,1.295,3.814,3.43,3.814c0.696,0,1.379-0.156,1.835-0.372L77.086,169.775z"/>
<path fill="#00A0E9" d="M84.058,166.729c0,2.435-1.607,3.466-3.059,3.466c-1.679,0-2.974-1.259-2.974-3.37
	c0-2.231,1.391-3.466,3.058-3.466C82.871,163.359,84.058,164.726,84.058,166.729z M81.047,164.139c-1.415,0-2.003,1.391-2.003,2.65
	c0,1.451,0.804,2.626,1.979,2.626c1.188,0,2.015-1.175,2.015-2.65C83.039,165.602,82.475,164.139,81.047,164.139z"/>
<path fill="#00A0E9" d="M90.802,170.051h-0.995v-3.862c0-1.067-0.384-2.003-1.523-2.003c-0.852,0-1.715,0.72-1.715,1.859v4.006
	h-0.996v-4.857c0-0.671-0.024-1.163-0.048-1.691h0.888l0.06,1.067h0.024c0.324-0.636,1.08-1.211,2.099-1.211
	c0.815,0,2.207,0.492,2.207,2.71V170.051z"/>
<path fill="#00A0E9" d="M97.966,170.051h-0.995v-3.862c0-1.067-0.384-2.003-1.523-2.003c-0.852,0-1.715,0.72-1.715,1.859v4.006
	h-0.996v-4.857c0-0.671-0.024-1.163-0.048-1.691h0.888l0.06,1.067h0.024c0.324-0.636,1.08-1.211,2.099-1.211
	c0.815,0,2.207,0.492,2.207,2.71V170.051z"/>
<path fill="#00A0E9" d="M104.53,169.775c-0.372,0.18-1.055,0.408-2.051,0.408c-1.907,0-3.046-1.343-3.046-3.298
	c0-2.051,1.151-3.526,2.915-3.526c2.015,0,2.531,1.847,2.531,2.986c0,0.228-0.012,0.396-0.024,0.552h-4.449
	c0.012,1.811,1.043,2.495,2.219,2.495c0.815,0,1.307-0.168,1.715-0.336L104.53,169.775z M103.895,166.153
	c0.012-0.887-0.359-2.039-1.643-2.039c-1.199,0-1.727,1.139-1.823,2.039H103.895z"/>
<path fill="#00A0E9" d="M110.782,169.812c-0.288,0.144-0.936,0.372-1.775,0.372c-1.871,0-3.106-1.331-3.106-3.334
	c0-2.015,1.332-3.49,3.346-3.49c0.731,0,1.319,0.216,1.571,0.348l-0.252,0.804c-0.276-0.156-0.708-0.336-1.343-0.336
	c-1.511,0-2.303,1.211-2.303,2.615c0,1.583,0.947,2.579,2.267,2.579c0.648,0,1.092-0.18,1.416-0.324L110.782,169.812z"/>
<path fill="#00A0E9" d="M112.441,162.328l0.983-0.336v1.523h1.691v0.78h-1.691v3.778c0,0.828,0.251,1.283,0.887,1.283
	c0.3,0,0.504-0.036,0.672-0.096l0.06,0.768c-0.216,0.096-0.552,0.156-0.972,0.156c-1.583,0-1.631-1.439-1.631-2.135v-3.754h-1.008
	v-0.78h1.008V162.328z"/>
<path fill="#E60012" d="M113.458,77.741c0,2.747-1.415,3.814-3.238,3.814c-1.703,0-3.058-0.996-3.058-3.754v-5.517h0.996v5.529
	c0,2.075,0.911,2.915,2.11,2.915c1.319,0,2.195-0.888,2.195-2.915v-5.529h0.996V77.741z"/>
<path fill="#E60012" d="M120.694,81.411h-0.995v-3.862c0-1.067-0.384-2.003-1.523-2.003c-0.852,0-1.715,0.72-1.715,1.859v4.006
	h-0.996v-4.857c0-0.671-0.024-1.163-0.048-1.691h0.887l0.06,1.067h0.024c0.324-0.636,1.08-1.211,2.099-1.211
	c0.815,0,2.207,0.492,2.207,2.71V81.411z"/>
<path fill="#E60012" d="M127.042,81.171c-0.288,0.144-0.936,0.372-1.775,0.372c-1.871,0-3.106-1.331-3.106-3.334
	c0-2.015,1.332-3.49,3.346-3.49c0.731,0,1.319,0.216,1.571,0.348l-0.252,0.804c-0.276-0.156-0.708-0.336-1.343-0.336
	c-1.511,0-2.303,1.211-2.303,2.615c0,1.583,0.947,2.579,2.267,2.579c0.648,0,1.092-0.18,1.416-0.324L127.042,81.171z"/>
<path fill="#E60012" d="M133.99,78.088c0,2.435-1.607,3.466-3.059,3.466c-1.679,0-2.974-1.259-2.974-3.37
	c0-2.231,1.391-3.466,3.058-3.466C132.802,74.718,133.99,76.085,133.99,78.088z M130.979,75.498c-1.415,0-2.003,1.391-2.003,2.65
	c0,1.451,0.804,2.626,1.979,2.626c1.188,0,2.015-1.175,2.015-2.65C132.97,76.961,132.406,75.498,130.979,75.498z"/>
<path fill="#E60012" d="M140.733,81.411h-0.995v-3.862c0-1.067-0.384-2.003-1.523-2.003c-0.852,0-1.715,0.72-1.715,1.859v4.006
	h-0.996v-4.857c0-0.671-0.024-1.163-0.048-1.691h0.888l0.06,1.067h0.024c0.324-0.636,1.08-1.211,2.099-1.211
	c0.815,0,2.207,0.492,2.207,2.71V81.411z"/>
<path fill="#E60012" d="M147.897,81.411h-0.995v-3.862c0-1.067-0.384-2.003-1.523-2.003c-0.852,0-1.715,0.72-1.715,1.859v4.006
	h-0.996v-4.857c0-0.671-0.024-1.163-0.048-1.691h0.888l0.06,1.067h0.024c0.324-0.636,1.08-1.211,2.099-1.211
	c0.815,0,2.207,0.492,2.207,2.71V81.411z"/>
<path fill="#E60012" d="M154.462,81.135c-0.372,0.18-1.055,0.408-2.051,0.408c-1.907,0-3.046-1.343-3.046-3.298
	c0-2.051,1.151-3.526,2.915-3.526c2.015,0,2.531,1.847,2.531,2.986c0,0.228-0.012,0.396-0.024,0.552h-4.449
	c0.012,1.811,1.043,2.495,2.219,2.495c0.815,0,1.307-0.168,1.715-0.336L154.462,81.135z M153.826,77.513
	c0.012-0.887-0.359-2.039-1.643-2.039c-1.199,0-1.727,1.139-1.823,2.039H153.826z"/>
<path fill="#E60012" d="M160.714,81.171c-0.288,0.144-0.936,0.372-1.775,0.372c-1.871,0-3.106-1.331-3.106-3.334
	c0-2.015,1.332-3.49,3.346-3.49c0.731,0,1.319,0.216,1.571,0.348l-0.252,0.804c-0.276-0.156-0.708-0.336-1.343-0.336
	c-1.511,0-2.303,1.211-2.303,2.615c0,1.583,0.947,2.579,2.267,2.579c0.648,0,1.092-0.18,1.416-0.324L160.714,81.171z"/>
<path fill="#E60012" d="M162.373,73.687l0.983-0.336v1.523h1.691v0.78h-1.691v3.778c0,0.828,0.251,1.283,0.887,1.283
	c0.3,0,0.504-0.036,0.672-0.096l0.06,0.768c-0.216,0.096-0.552,0.156-0.972,0.156c-1.583,0-1.631-1.439-1.631-2.135v-3.754h-1.008
	v-0.78h1.008V73.687z"/>
<path fill="#E60012" d="M170.986,81.135c-0.372,0.18-1.055,0.408-2.051,0.408c-1.907,0-3.046-1.343-3.046-3.298
	c0-2.051,1.151-3.526,2.915-3.526c2.015,0,2.531,1.847,2.531,2.986c0,0.228-0.012,0.396-0.024,0.552h-4.449
	c0.012,1.811,1.043,2.495,2.219,2.495c0.815,0,1.307-0.168,1.715-0.336L170.986,81.135z M170.35,77.513
	c0.012-0.887-0.359-2.039-1.643-2.039c-1.199,0-1.727,1.139-1.823,2.039H170.35z"/>
<path fill="#E60012" d="M178.102,79.792c0,0.528,0.024,1.175,0.048,1.619h-0.888l-0.048-1.115h-0.036
	c-0.335,0.684-1.079,1.259-2.135,1.259c-1.511,0-2.687-1.308-2.687-3.322c0-2.207,1.295-3.502,2.818-3.502
	c0.959,0,1.607,0.468,1.907,1.007h0.024v-3.922h0.996V79.792z M177.106,77.489c0-1.307-0.923-1.955-1.763-1.955
	c-1.235,0-1.967,1.151-1.967,2.651c0,1.379,0.647,2.554,1.931,2.554c1.079,0,1.799-0.947,1.799-1.991V77.489z"/>
<path fill="#00A0E9" d="M48.928,43.455c-0.492,0.192-1.451,0.467-2.603,0.467c-3.586,0-4.438-2.674-4.438-4.605
	c0-2.782,1.811-4.713,4.677-4.713c0.876,0,1.655,0.168,2.111,0.384l-0.264,0.828c-0.444-0.204-1.02-0.372-1.871-0.372
	c-2.159,0-3.61,1.391-3.61,3.814c0,2.471,1.379,3.85,3.466,3.85c0.768,0,1.283-0.12,1.547-0.264v-2.926h-1.847v-0.804h2.831V43.455z
	"/>
<path fill="#00A0E9" d="M51.655,43.826h-0.996v-9.595h0.996V43.826z"/>
<path fill="#00A0E9" d="M59.188,40.504c0,2.435-1.607,3.466-3.059,3.466c-1.679,0-2.974-1.259-2.974-3.37
	c0-2.231,1.391-3.466,3.058-3.466C58.001,37.134,59.188,38.501,59.188,40.504z M56.178,37.914c-1.415,0-2.003,1.391-2.003,2.65
	c0,1.451,0.804,2.626,1.979,2.626c1.188,0,2.015-1.175,2.015-2.65C58.169,39.376,57.605,37.914,56.178,37.914z"/>
<path fill="#00A0E9" d="M61.723,38.345c0.408-0.755,1.151-1.211,2.171-1.211c1.547,0,2.638,1.332,2.638,3.346
	c0,2.375-1.451,3.49-2.806,3.49c-0.948,0-1.643-0.384-2.111-1.224h-0.036l-0.06,1.08h-0.863c0.024-0.432,0.048-1.091,0.048-1.619
	v-7.976h0.996v4.114H61.723z M61.699,41.271c0,0.972,0.731,1.883,1.835,1.883c1.271,0,1.979-1.091,1.979-2.638
	c0-1.367-0.672-2.567-1.943-2.567c-1.14,0-1.871,1.067-1.871,2.027V41.271z"/>
<path fill="#00A0E9" d="M72.317,42.267c0,0.54,0.012,1.104,0.096,1.559h-0.911l-0.096-0.839H71.37
	c-0.336,0.516-1.008,0.983-1.931,0.983c-1.248,0-1.907-0.912-1.907-1.859c0-1.571,1.367-2.423,3.79-2.411
	c0-0.551,0-1.799-1.487-1.799c-0.564,0-1.151,0.156-1.595,0.468l-0.24-0.684c0.528-0.348,1.259-0.552,1.991-0.552
	c1.847,0,2.327,1.307,2.327,2.603V42.267z M71.333,40.432c-1.235,0-2.783,0.18-2.783,1.559c0,0.839,0.528,1.211,1.127,1.211
	c0.972,0,1.655-0.744,1.655-1.535V40.432z"/>
<path fill="#00A0E9" d="M75.235,43.826h-0.996v-9.595h0.996V43.826z"/>
</svg>
