<?xml version="1.0" encoding="utf-8"?>
<!-- Generator: Adobe Illustrator 14.0.0, SVG Export Plug-In  -->
<!DOCTYPE svg PUBLIC "-//W3C//DTD SVG 1.1//EN" "http://www.w3.org/Graphics/SVG/1.1/DTD/svg11.dtd" [
	<!ENTITY ns_flows "http://ns.adobe.com/Flows/1.0/">
]>
<svg version="1.1"
	 xmlns="http://www.w3.org/2000/svg" xmlns:xlink="http://www.w3.org/1999/xlink" xmlns:a="http://ns.adobe.com/AdobeSVGViewerExtensions/3.0/"
	 x="0px" y="0px" width="300px" height="100px" viewBox="-100 -3.98 300 100" enable-background="new -100 -3.98 300 100"
	 xml:space="preserve">
<defs>
</defs>
<path fill="#666464" d="M100,18c0,1.104-0.896,2-2,2H2c-1.104,0-2-0.896-2-2V2c0-1.104,0.896-2,2-2h96c1.104,0,2,0.896,2,2V18z"/>
<path fill="#3AAEE4" d="M100,50.334c0,1.104-0.896,2-2,2H2c-1.104,0-2-0.896-2-2v-16c0-1.105,0.896-2,2-2h96c1.104,0,2,0.895,2,2
	V50.334z"/>
<path fill="#FFFFFF" d="M41.833,44.705H38.25v-6.859h0.748v6.221h2.835V44.705z"/>
<path fill="#FFFFFF" d="M46.945,42.211c0,1.828-1.206,2.602-2.295,2.602c-1.26,0-2.233-0.945-2.233-2.529
	c0-1.674,1.044-2.602,2.296-2.602C46.054,39.682,46.945,40.709,46.945,42.211z M44.686,40.268c-1.063,0-1.503,1.043-1.503,1.988
	c0,1.09,0.603,1.973,1.485,1.973c0.891,0,1.512-0.883,1.512-1.99C46.18,41.365,45.757,40.268,44.686,40.268z"/>
<path fill="#FFFFFF" d="M52.066,39.789c-0.027,0.352-0.045,0.748-0.045,1.352v2.863c0,0.854-0.018,2.816-2.34,2.816
	c-0.558,0-1.17-0.135-1.54-0.387l0.198-0.584c0.315,0.188,0.792,0.369,1.377,0.369c0.9,0,1.558-0.479,1.558-1.775v-0.584h-0.018
	c-0.252,0.459-0.774,0.838-1.521,0.838c-1.17,0-2.007-1.037-2.007-2.414c0-1.701,1.062-2.602,2.125-2.602
	c0.837,0,1.278,0.451,1.485,0.846h0.018l0.036-0.738H52.066z M51.265,41.68c0-0.855-0.621-1.395-1.306-1.395
	c-0.864,0-1.467,0.766-1.467,1.953c0,1.045,0.504,1.863,1.458,1.863c0.558,0,1.314-0.422,1.314-1.439V41.68z"/>
<path fill="#FFFFFF" d="M55.962,38.936c-0.288,0-0.486-0.227-0.486-0.514c0-0.279,0.207-0.504,0.495-0.504
	c0.297,0,0.486,0.225,0.486,0.504C56.457,38.736,56.25,38.936,55.962,38.936z M56.34,44.705h-0.747v-4.906h0.747V44.705z"/>
<path fill="#FFFFFF" d="M61.75,44.705h-0.748v-2.898c0-0.801-0.288-1.504-1.143-1.504c-0.639,0-1.288,0.541-1.288,1.396v3.006
	h-0.747v-3.646c0-0.504-0.018-0.873-0.036-1.27h0.666l0.045,0.803h0.018c0.243-0.479,0.81-0.91,1.575-0.91
	c0.612,0,1.657,0.369,1.657,2.035V44.705z"/>
<path fill="#FFFFFF" d="M38.476,6.408c-0.198-0.126-0.63-0.315-1.207-0.315c-0.954,0-1.314,0.585-1.314,1.081
	c0,0.675,0.415,1.017,1.333,1.404c1.107,0.468,1.675,1.035,1.675,2.016c0,1.09-0.792,1.928-2.269,1.928
	c-0.621,0-1.296-0.189-1.638-0.433l0.207-0.621c0.369,0.243,0.918,0.423,1.477,0.423c0.918,0,1.458-0.495,1.458-1.233
	c0-0.675-0.369-1.089-1.26-1.449c-1.035-0.388-1.737-0.99-1.737-1.936c0-1.044,0.846-1.81,2.098-1.81
	c0.648,0,1.143,0.162,1.404,0.324L38.476,6.408z"/>
<path fill="#FFFFFF" d="M40.5,6.651c-0.288,0-0.486-0.226-0.486-0.513c0-0.279,0.207-0.505,0.495-0.505
	c0.297,0,0.486,0.226,0.486,0.505C40.996,6.453,40.789,6.651,40.5,6.651z M40.878,12.422h-0.747V7.516h0.747V12.422z"/>
<path fill="#FFFFFF" d="M46.352,7.506c-0.027,0.352-0.045,0.748-0.045,1.352v2.862c0,0.854-0.018,2.817-2.34,2.817
	c-0.558,0-1.17-0.135-1.54-0.387l0.198-0.585c0.315,0.188,0.792,0.369,1.377,0.369c0.9,0,1.558-0.478,1.558-1.774v-0.584h-0.018
	c-0.252,0.459-0.774,0.837-1.521,0.837c-1.17,0-2.007-1.036-2.007-2.413c0-1.701,1.062-2.602,2.125-2.602
	c0.837,0,1.278,0.45,1.485,0.846h0.018l0.036-0.738H46.352z M45.55,9.396c0-0.855-0.621-1.395-1.306-1.395
	c-0.864,0-1.467,0.765-1.467,1.953c0,1.045,0.504,1.863,1.458,1.863c0.558,0,1.314-0.423,1.314-1.439V9.396z"/>
<path fill="#FFFFFF" d="M51.707,12.422h-0.748V9.523c0-0.802-0.288-1.504-1.143-1.504c-0.639,0-1.288,0.54-1.288,1.396v3.007h-0.747
	V8.775c0-0.504-0.018-0.873-0.036-1.27h0.667l0.045,0.802h0.018c0.243-0.478,0.81-0.909,1.575-0.909
	c0.612,0,1.657,0.369,1.657,2.035V12.422z"/>
<path fill="#FFFFFF" d="M59.095,11.117c0,0.504,0.027,0.927,0.045,1.305h-0.675l-0.036-0.774h-0.027
	c-0.225,0.388-0.729,0.882-1.566,0.882c-0.738,0-1.611-0.422-1.611-2.115V7.516h0.747v2.764c0,0.954,0.279,1.621,1.098,1.621
	c0.585,0,1.278-0.469,1.278-1.333V7.516h0.748V11.117z"/>
<path fill="#FFFFFF" d="M61.272,8.344c0.342-0.604,0.909-0.945,1.674-0.945c1.162,0,1.999,0.999,1.999,2.503
	c0,1.8-1.053,2.628-2.133,2.628c-0.648,0-1.188-0.297-1.477-0.783h-0.018v2.684H60.57V9.091c0-0.64-0.018-1.134-0.036-1.585h0.675
	l0.045,0.838H61.272z M61.317,10.469c0,0.953,0.711,1.458,1.377,1.458c0.963,0,1.495-0.828,1.495-1.999
	c0-1.018-0.513-1.917-1.468-1.917c-0.837,0-1.404,0.81-1.404,1.521V10.469z"/>
<path opacity="0.4" fill="#1B1617" d="M75.417,62.152c-1.009,0-1.952,0.273-2.769,0.744c-0.485-2.576-2.744-4.523-5.461-4.523
	c-1.102,0-2.126,0.324-2.99,0.877c-0.808-2.074-2.82-3.545-5.178-3.545c-1.036,0-2,0.287-2.831,0.779V43.479
	c0-3.071-2.491-5.561-5.561-5.561c-3.071,0-5.56,2.489-5.56,5.561v25.088l-1.969-2.217c-2.037-2.295-5.552-2.504-7.848-0.465
	c-2.296,2.041-2.505,5.555-0.465,7.852l12.129,13.656c2.439,2.387,6.6,4.646,10.175,4.646h11.944
	c6.598,0,11.948-4.789,11.948-10.697l-0.004-13.629C80.978,64.643,78.486,62.152,75.417,62.152L75.417,62.152z M75.417,62.152"/>
</svg>
