<?xml version="1.0" encoding="utf-8"?>
<!-- Generator: Adobe Illustrator 14.0.0, SVG Export Plug-In  -->
<!DOCTYPE svg PUBLIC "-//W3C//DTD SVG 1.1//EN" "http://www.w3.org/Graphics/SVG/1.1/DTD/svg11.dtd" [
	<!ENTITY ns_flows "http://ns.adobe.com/Flows/1.0/">
]>
<svg version="1.1"
	 xmlns="http://www.w3.org/2000/svg" xmlns:xlink="http://www.w3.org/1999/xlink" xmlns:a="http://ns.adobe.com/AdobeSVGViewerExtensions/3.0/"
	 x="0px" y="0px" width="300px" height="300px" viewBox="-74.999 -25 300 300" enable-background="new -74.999 -25 300 300"
	 xml:space="preserve">
<defs>
</defs>
<rect x="0.001" fill="#6DC5C8" width="150" height="40"/>
<path fill="#FFFFFF" d="M26.001,26.197c0,0.996-0.896,1.803-2,1.803h-12c-1.104,0-2-0.807-2-1.803V13.803
	c0-0.995,0.896-1.803,2-1.803h12c1.104,0,2,0.808,2,1.803V26.197z"/>
<path fill="#FFFFFF" d="M141.001,26.197c0,0.996-0.895,1.803-2,1.803h-12c-1.104,0-2-0.807-2-1.803V13.803
	c0-0.995,0.896-1.803,2-1.803h12c1.105,0,2,0.808,2,1.803V26.197z"/>
<polygon fill="#6DC5C8" points="134.503,15 131.499,15 131.499,18.499 128.001,18.499 128.001,21.501 131.499,21.501 131.499,25 
	134.503,25 134.503,21.501 138.001,21.501 138.001,18.499 134.503,18.499 "/>
<rect x="13.002" y="18.5" fill="#6DC5C8" width="9.999" height="3"/>
<rect y="190" opacity="0.2" fill="#0B7C8F" width="150.002" height="50"/>
<path d="M19.408,208.449h-12.5c-0.69,0-1.25,0.559-1.25,1.248v8.129c0,0.691,0.56,1.25,1.25,1.25h8.772l2.477,2.477v-2.477h1.251
	c0.69,0,1.25-0.559,1.25-1.25v-8.129C20.658,209.008,20.099,208.449,19.408,208.449z M20.033,217.826
	c0,0.346-0.28,0.625-0.625,0.625h-1.251h-0.625v0.625v0.969l-1.41-1.41l-0.183-0.184h-0.259H6.908c-0.345,0-0.625-0.279-0.625-0.625
	v-8.129c0-0.344,0.28-0.623,0.625-0.623h12.5c0.345,0,0.625,0.279,0.625,0.623V217.826z"/>
<circle cx="13.158" cy="213.764" r="0.625"/>
<circle cx="15.657" cy="213.764" r="0.625"/>
<circle cx="10.717" cy="213.764" r="0.625"/>
<path d="M34.834,198.027c0.386-0.057,0.834-0.107,1.323-0.107c2.11,0,2.718,1.248,2.718,2.537c0,0.834-0.222,1.539-0.715,2.059
	c-0.465,0.479-1.228,0.736-2.187,0.736c-0.436,0-0.809-0.008-1.14-0.047V198.027z M35.408,202.76
	c0.172,0.023,0.418,0.033,0.666,0.033c1.424,0,2.203-0.803,2.203-2.313c0-1.365-0.734-2.102-2.1-2.102
	c-0.33,0-0.592,0.033-0.77,0.066V202.76z"/>
<path d="M40.004,198.791c-0.219,0-0.373-0.168-0.373-0.391c0-0.213,0.159-0.391,0.381-0.391c0.227,0,0.373,0.178,0.373,0.391
	C40.385,198.639,40.227,198.791,40.004,198.791z M40.293,203.211h-0.569v-3.756h0.569V203.211z"/>
<path d="M43.189,200.029c-0.138-0.092-0.394-0.223-0.729-0.223c-0.414,0-0.637,0.256-0.637,0.557c0,0.328,0.214,0.479,0.695,0.688
	c0.607,0.242,0.959,0.561,0.959,1.131c0,0.67-0.51,1.104-1.33,1.104c-0.371,0-0.73-0.098-0.985-0.25l0.159-0.443
	c0.201,0.117,0.523,0.26,0.846,0.26c0.508,0,0.754-0.271,0.754-0.611c0-0.352-0.201-0.545-0.695-0.746
	c-0.637-0.25-0.959-0.602-0.959-1.063c0-0.586,0.47-1.063,1.227-1.063c0.357,0,0.662,0.098,0.863,0.225L43.189,200.029z"/>
<path d="M44.893,200.088c0.264-0.461,0.695-0.719,1.281-0.719c0.893,0,1.533,0.76,1.533,1.918c0,1.371-0.809,2.008-1.633,2.008
	c-0.499,0-0.914-0.227-1.133-0.598h-0.016v2.057h-0.57v-4.088c0-0.494-0.016-0.871-0.027-1.213h0.516l0.037,0.635H44.893z
	 M44.926,201.721c0,0.73,0.545,1.113,1.056,1.113c0.737,0,1.147-0.637,1.147-1.533c0-0.777-0.393-1.463-1.127-1.463
	c-0.64,0-1.076,0.619-1.076,1.164V201.721z"/>
<path d="M49.141,203.211h-0.572v-5.514h0.572V203.211z"/>
<path d="M52.738,202.316c0,0.309,0.008,0.637,0.055,0.895h-0.524l-0.054-0.475h-0.021c-0.192,0.291-0.577,0.559-1.109,0.559
	c-0.715,0-1.098-0.52-1.098-1.066c0-0.9,0.787-1.395,2.182-1.387c0-0.318,0-1.035-0.857-1.035c-0.322,0-0.662,0.088-0.918,0.273
	l-0.139-0.393c0.307-0.201,0.725-0.318,1.148-0.318c1.059,0,1.336,0.75,1.336,1.492V202.316z M52.172,201.26
	c-0.707,0-1.599,0.109-1.599,0.896c0,0.486,0.306,0.697,0.649,0.697c0.556,0,0.949-0.43,0.949-0.881V201.26z"/>
<path d="M56.678,199.455l-1.002,2.658c-0.447,1.225-0.766,1.928-1.235,2.371c-0.318,0.283-0.628,0.4-0.767,0.439l-0.158-0.48
	c0.879-0.328,1.213-1.277,1.213-1.355c0-0.035-0.012-0.086-0.041-0.156l-1.328-3.477h0.625l0.82,2.283
	c0.098,0.258,0.181,0.561,0.243,0.787h0.021c0.064-0.227,0.15-0.512,0.244-0.805l0.758-2.266H56.678z"/>
<path d="M61.035,203.211h-0.574l-1.674-2.764c-0.353-0.586-0.691-1.172-0.947-1.75l-0.027,0.01c0.048,0.67,0.057,1.281,0.057,2.193
	v2.311h-0.541v-5.25h0.602l1.698,2.764c0.372,0.629,0.674,1.172,0.917,1.717l0.012-0.01c-0.054-0.727-0.068-1.355-0.068-2.186
	v-2.285h0.547V203.211z"/>
<path d="M64.646,202.316c0,0.309,0.004,0.637,0.055,0.895h-0.523l-0.057-0.475h-0.02c-0.195,0.291-0.582,0.559-1.113,0.559
	c-0.717,0-1.094-0.52-1.094-1.066c0-0.9,0.783-1.395,2.178-1.387c0-0.318,0-1.035-0.854-1.035c-0.327,0-0.662,0.088-0.917,0.273
	l-0.138-0.393c0.301-0.201,0.725-0.318,1.143-0.318c1.063,0,1.34,0.75,1.34,1.492V202.316z M64.082,201.26
	c-0.713,0-1.602,0.109-1.602,0.896c0,0.486,0.303,0.697,0.646,0.697c0.562,0,0.956-0.43,0.956-0.881V201.26z"/>
<path d="M70.863,203.211h-0.566v-2.168c0-0.729-0.258-1.197-0.824-1.197c-0.465,0-0.883,0.43-0.883,1.004v2.361h-0.565V200.9
	c0-0.604-0.255-1.055-0.788-1.055c-0.49,0-0.926,0.477-0.926,1.063v2.303h-0.564v-2.787c0-0.385-0.013-0.662-0.025-0.971h0.503
	l0.033,0.602h0.021c0.207-0.365,0.554-0.686,1.145-0.686c0.488,0,0.869,0.301,1.029,0.75h0.012c0.248-0.449,0.629-0.75,1.207-0.75
	c0.465,0,1.193,0.291,1.193,1.58V203.211z"/>
<path d="M74.633,203.053c-0.213,0.109-0.607,0.232-1.176,0.232c-1.098,0-1.756-0.77-1.756-1.891c0-1.182,0.662-2.025,1.678-2.025
	c1.158,0,1.455,1.063,1.455,1.715c0,0.129-0.008,0.227-0.012,0.318h-2.559c0.004,1.039,0.598,1.432,1.271,1.432
	c0.471,0,0.756-0.098,0.99-0.191L74.633,203.053z M74.27,200.977c0.008-0.512-0.207-1.172-0.947-1.172
	c-0.686,0-0.992,0.652-1.047,1.172H74.27z"/>
<path d="M39.078,218.291c-0.385,0.186-1.133,0.373-2.09,0.373c-2.156,0-3.895-1.396-3.895-4.234c0-2.707,1.684-4.391,4.137-4.391
	c1.001,0,1.584,0.209,1.848,0.342l-0.242,0.77c-0.385-0.188-0.924-0.342-1.584-0.342c-1.902,0-3.201,1.277-3.201,3.588
	c0,2.199,1.188,3.498,3.146,3.498c0.639,0,1.266-0.143,1.684-0.342L39.078,218.291z"/>
<path d="M45.47,215.496c0,2.232-1.475,3.18-2.806,3.18c-1.54,0-2.729-1.156-2.729-3.092c0-2.047,1.276-3.18,2.806-3.18
	C44.381,212.404,45.47,213.658,45.47,215.496z M42.708,213.119c-1.298,0-1.837,1.277-1.837,2.432c0,1.332,0.736,2.41,1.814,2.41
	c1.09,0,1.849-1.078,1.849-2.432C44.534,214.461,44.018,213.119,42.708,213.119z"/>
<path d="M55.018,218.543h-0.902v-3.465c0-1.166-0.418-1.914-1.32-1.914c-0.736,0-1.408,0.693-1.408,1.605v3.773h-0.901v-3.695
	c0-0.957-0.407-1.684-1.255-1.684c-0.78,0-1.474,0.77-1.474,1.705v3.674h-0.901v-4.455c0-0.615-0.023-1.057-0.045-1.551h0.803
	l0.056,0.967h0.032c0.33-0.582,0.881-1.1,1.827-1.1c0.78,0,1.386,0.484,1.64,1.199h0.021c0.396-0.715,1.001-1.199,1.926-1.199
	c0.736,0,1.902,0.473,1.902,2.531V218.543z"/>
<path d="M64.951,218.543h-0.902v-3.465c0-1.166-0.418-1.914-1.32-1.914c-0.736,0-1.408,0.693-1.408,1.605v3.773h-0.902v-3.695
	c0-0.957-0.406-1.684-1.254-1.684c-0.781,0-1.475,0.77-1.475,1.705v3.674h-0.901v-4.455c0-0.615-0.022-1.057-0.044-1.551h0.803
	l0.055,0.967h0.033c0.33-0.582,0.881-1.1,1.826-1.1c0.781,0,1.387,0.484,1.64,1.199h0.022c0.396-0.715,1-1.199,1.925-1.199
	c0.737,0,1.903,0.473,1.903,2.531V218.543z"/>
<path d="M70.967,218.291c-0.34,0.164-0.967,0.373-1.881,0.373c-1.749,0-2.794-1.232-2.794-3.025c0-1.881,1.056-3.234,2.673-3.234
	c1.848,0,2.322,1.695,2.322,2.74c0,0.209-0.012,0.363-0.023,0.506h-4.08c0.01,1.66,0.957,2.287,2.035,2.287
	c0.748,0,1.199-0.152,1.572-0.307L70.967,218.291z M70.385,214.969c0.01-0.814-0.33-1.871-1.508-1.871
	c-1.1,0-1.584,1.045-1.672,1.871H70.385z"/>
<path d="M77.446,218.543h-0.913V215c0-0.979-0.352-1.836-1.396-1.836c-0.781,0-1.574,0.66-1.574,1.705v3.674H72.65v-4.455
	c0-0.615-0.023-1.066-0.045-1.551h0.814l0.055,0.979h0.021c0.297-0.582,0.99-1.111,1.926-1.111c0.748,0,2.024,0.451,2.024,2.486
	V218.543z"/>
<path d="M79.458,211.459l0.902-0.309v1.396h1.553v0.717H80.36v3.465c0,0.76,0.232,1.178,0.814,1.178c0.275,0,0.463-0.033,0.617-0.09
	l0.055,0.705c-0.199,0.088-0.506,0.143-0.893,0.143c-1.451,0-1.496-1.32-1.496-1.957v-3.443h-0.924v-0.717h0.924V211.459z"/>
<line fill="#70C198" stroke="#A7A2A1" stroke-width="0.5" x1="20" y1="240" x2="150.002" y2="240"/>
<rect x="0.001" y="40" opacity="0.2" fill="#0B7C8F" width="150" height="50"/>
<path d="M19.408,58.449h-12.5c-0.689,0-1.25,0.559-1.25,1.248v8.129c0,0.691,0.561,1.25,1.25,1.25h8.773l2.477,2.477v-2.477h1.25
	c0.691,0,1.25-0.559,1.25-1.25v-8.129C20.658,59.008,20.1,58.449,19.408,58.449z M20.033,67.826c0,0.346-0.279,0.625-0.625,0.625
	h-1.25h-0.625v0.625v0.969l-1.41-1.41l-0.184-0.184h-0.258H6.908c-0.344,0-0.625-0.279-0.625-0.625v-8.129
	c0-0.344,0.281-0.623,0.625-0.623h12.5c0.346,0,0.625,0.279,0.625,0.623V67.826z"/>
<circle cx="13.158" cy="63.764" r="0.625"/>
<circle cx="15.658" cy="63.764" r="0.625"/>
<circle cx="10.717" cy="63.764" r="0.625"/>
<path d="M34.835,48.027c0.386-0.057,0.833-0.107,1.323-0.107c2.11,0,2.717,1.248,2.717,2.537c0,0.834-0.222,1.539-0.715,2.059
	c-0.464,0.479-1.227,0.736-2.186,0.736c-0.436,0-0.809-0.008-1.14-0.047V48.027z M35.409,52.76c0.171,0.023,0.418,0.033,0.665,0.033
	c1.424,0,2.203-0.803,2.203-2.313c0-1.365-0.733-2.102-2.099-2.102c-0.33,0-0.592,0.033-0.77,0.066V52.76z"/>
<path d="M40.004,48.791c-0.219,0-0.373-0.168-0.373-0.391c0-0.213,0.159-0.391,0.381-0.391c0.227,0,0.373,0.178,0.373,0.391
	C40.385,48.639,40.227,48.791,40.004,48.791z M40.293,53.211h-0.569v-3.756h0.569V53.211z"/>
<path d="M43.189,50.029c-0.138-0.092-0.394-0.223-0.729-0.223c-0.414,0-0.637,0.256-0.637,0.557c0,0.328,0.214,0.479,0.695,0.688
	c0.607,0.242,0.959,0.561,0.959,1.131c0,0.67-0.51,1.104-1.33,1.104c-0.371,0-0.73-0.098-0.985-0.25l0.159-0.443
	c0.201,0.117,0.523,0.26,0.846,0.26c0.508,0,0.754-0.271,0.754-0.611c0-0.352-0.201-0.545-0.695-0.746
	c-0.637-0.25-0.959-0.602-0.959-1.063c0-0.586,0.47-1.063,1.227-1.063c0.357,0,0.662,0.098,0.863,0.225L43.189,50.029z"/>
<path d="M44.893,50.088c0.264-0.461,0.695-0.719,1.281-0.719c0.893,0,1.533,0.76,1.533,1.918c0,1.371-0.809,2.008-1.633,2.008
	c-0.499,0-0.914-0.227-1.133-0.598h-0.016v2.057h-0.57v-4.088c0-0.494-0.016-0.871-0.027-1.213h0.516l0.037,0.635H44.893z
	 M44.926,51.721c0,0.73,0.545,1.113,1.056,1.113c0.737,0,1.147-0.637,1.147-1.533c0-0.777-0.393-1.463-1.127-1.463
	c-0.64,0-1.076,0.619-1.076,1.164V51.721z"/>
<path d="M49.141,53.211h-0.572v-5.514h0.572V53.211z"/>
<path d="M52.738,52.316c0,0.309,0.008,0.637,0.055,0.895h-0.524l-0.054-0.475h-0.021c-0.192,0.291-0.577,0.559-1.109,0.559
	c-0.715,0-1.098-0.52-1.098-1.066c0-0.9,0.787-1.395,2.182-1.387c0-0.318,0-1.035-0.857-1.035c-0.322,0-0.662,0.088-0.918,0.273
	l-0.139-0.393c0.307-0.201,0.725-0.318,1.148-0.318c1.059,0,1.336,0.75,1.336,1.492V52.316z M52.172,51.26
	c-0.707,0-1.599,0.109-1.599,0.896c0,0.486,0.306,0.697,0.649,0.697c0.556,0,0.949-0.43,0.949-0.881V51.26z"/>
<path d="M56.678,49.455l-1.002,2.658c-0.447,1.225-0.766,1.928-1.235,2.371c-0.318,0.283-0.628,0.4-0.767,0.439l-0.158-0.48
	c0.879-0.328,1.213-1.277,1.213-1.355c0-0.035-0.012-0.086-0.041-0.156l-1.328-3.477h0.625l0.82,2.283
	c0.098,0.258,0.181,0.561,0.243,0.787h0.021c0.064-0.227,0.15-0.512,0.244-0.805l0.758-2.266H56.678z"/>
<path d="M61.035,53.211h-0.574l-1.674-2.764c-0.353-0.586-0.691-1.172-0.947-1.75l-0.027,0.01c0.048,0.67,0.057,1.281,0.057,2.193
	v2.311h-0.541v-5.25h0.602l1.698,2.764c0.372,0.629,0.674,1.172,0.917,1.717l0.012-0.01c-0.054-0.727-0.068-1.355-0.068-2.186
	v-2.285h0.547V53.211z"/>
<path d="M64.646,52.316c0,0.309,0.004,0.637,0.055,0.895h-0.523l-0.057-0.475h-0.02c-0.195,0.291-0.582,0.559-1.113,0.559
	c-0.717,0-1.094-0.52-1.094-1.066c0-0.9,0.783-1.395,2.178-1.387c0-0.318,0-1.035-0.854-1.035c-0.327,0-0.662,0.088-0.917,0.273
	l-0.138-0.393c0.301-0.201,0.725-0.318,1.143-0.318c1.063,0,1.34,0.75,1.34,1.492V52.316z M64.082,51.26
	c-0.713,0-1.602,0.109-1.602,0.896c0,0.486,0.303,0.697,0.646,0.697c0.562,0,0.956-0.43,0.956-0.881V51.26z"/>
<path d="M70.863,53.211h-0.566v-2.168c0-0.729-0.258-1.197-0.824-1.197c-0.465,0-0.883,0.43-0.883,1.004v2.361h-0.565V50.9
	c0-0.604-0.255-1.055-0.788-1.055c-0.49,0-0.926,0.477-0.926,1.063v2.303h-0.564v-2.787c0-0.385-0.013-0.662-0.025-0.971h0.503
	l0.033,0.602h0.021c0.207-0.365,0.554-0.686,1.145-0.686c0.488,0,0.869,0.301,1.029,0.75h0.012c0.248-0.449,0.629-0.75,1.207-0.75
	c0.465,0,1.193,0.291,1.193,1.58V53.211z"/>
<path d="M74.633,53.053c-0.213,0.109-0.607,0.232-1.176,0.232c-1.098,0-1.756-0.77-1.756-1.891c0-1.182,0.662-2.025,1.678-2.025
	c1.158,0,1.455,1.063,1.455,1.715c0,0.129-0.008,0.227-0.012,0.318h-2.559c0.004,1.039,0.598,1.432,1.271,1.432
	c0.471,0,0.756-0.098,0.99-0.191L74.633,53.053z M74.27,50.977c0.008-0.512-0.207-1.172-0.947-1.172
	c-0.686,0-0.992,0.652-1.047,1.172H74.27z"/>
<path d="M39.078,68.291c-0.385,0.186-1.133,0.373-2.09,0.373c-2.156,0-3.895-1.396-3.895-4.234c0-2.707,1.684-4.391,4.137-4.391
	c1.001,0,1.584,0.209,1.848,0.342l-0.242,0.77c-0.385-0.188-0.924-0.342-1.583-0.342c-1.903,0-3.202,1.277-3.202,3.588
	c0,2.199,1.188,3.498,3.146,3.498c0.639,0,1.266-0.143,1.684-0.342L39.078,68.291z"/>
<path d="M45.47,65.496c0,2.232-1.475,3.18-2.806,3.18c-1.54,0-2.729-1.156-2.729-3.092c0-2.047,1.276-3.18,2.806-3.18
	C44.381,62.404,45.47,63.658,45.47,65.496z M42.708,63.119c-1.298,0-1.837,1.277-1.837,2.432c0,1.332,0.736,2.41,1.814,2.41
	c1.09,0,1.849-1.078,1.849-2.432C44.534,64.461,44.018,63.119,42.708,63.119z"/>
<path d="M55.018,68.543h-0.902v-3.465c0-1.166-0.418-1.914-1.32-1.914c-0.736,0-1.408,0.693-1.408,1.605v3.773h-0.901v-3.695
	c0-0.957-0.407-1.684-1.255-1.684c-0.78,0-1.474,0.77-1.474,1.705v3.674h-0.901v-4.455c0-0.615-0.023-1.057-0.045-1.551h0.803
	l0.056,0.967h0.032c0.33-0.582,0.881-1.1,1.827-1.1c0.78,0,1.386,0.484,1.64,1.199h0.021c0.396-0.715,1.001-1.199,1.926-1.199
	c0.736,0,1.902,0.473,1.902,2.531V68.543z"/>
<path d="M64.951,68.543h-0.902v-3.465c0-1.166-0.418-1.914-1.32-1.914c-0.736,0-1.408,0.693-1.408,1.605v3.773h-0.902v-3.695
	c0-0.957-0.406-1.684-1.254-1.684c-0.781,0-1.475,0.77-1.475,1.705v3.674h-0.901v-4.455c0-0.615-0.022-1.057-0.044-1.551h0.803
	l0.055,0.967h0.033c0.33-0.582,0.881-1.1,1.826-1.1c0.781,0,1.387,0.484,1.64,1.199h0.022c0.396-0.715,1-1.199,1.925-1.199
	c0.737,0,1.903,0.473,1.903,2.531V68.543z"/>
<path d="M70.967,68.291c-0.34,0.164-0.967,0.373-1.881,0.373c-1.749,0-2.794-1.232-2.794-3.025c0-1.881,1.056-3.234,2.673-3.234
	c1.848,0,2.322,1.695,2.322,2.74c0,0.209-0.012,0.363-0.023,0.506h-4.08c0.01,1.66,0.957,2.287,2.035,2.287
	c0.748,0,1.199-0.152,1.572-0.307L70.967,68.291z M70.385,64.969c0.01-0.814-0.33-1.871-1.508-1.871c-1.1,0-1.584,1.045-1.672,1.871
	H70.385z"/>
<path d="M77.446,68.543h-0.913V65c0-0.979-0.352-1.836-1.396-1.836c-0.781,0-1.574,0.66-1.574,1.705v3.674H72.65v-4.455
	c0-0.615-0.023-1.066-0.045-1.551h0.814l0.055,0.979h0.021c0.297-0.582,0.99-1.111,1.926-1.111c0.748,0,2.024,0.451,2.024,2.486
	V68.543z"/>
<path d="M79.458,61.459l0.902-0.309v1.396h1.553v0.717H80.36v3.465c0,0.76,0.232,1.178,0.814,1.178c0.275,0,0.463-0.033,0.617-0.09
	l0.055,0.705c-0.199,0.088-0.506,0.143-0.893,0.143c-1.451,0-1.496-1.32-1.496-1.957v-3.443h-0.924v-0.717h0.924V61.459z"/>
<line fill="#70C198" stroke="#A7A2A1" stroke-width="0.5" x1="20.001" y1="90" x2="150.001" y2="90"/>
<rect x="0.001" y="90" opacity="0.3" fill="#FFFFFF" width="150" height="50"/>
<path d="M19.408,108.449h-12.5c-0.689,0-1.25,0.559-1.25,1.248v8.129c0,0.691,0.561,1.25,1.25,1.25h8.773l2.477,2.477v-2.477h1.25
	c0.691,0,1.25-0.559,1.25-1.25v-8.129C20.658,109.008,20.1,108.449,19.408,108.449z M20.033,117.826
	c0,0.346-0.279,0.625-0.625,0.625h-1.25h-0.625v0.625v0.969l-1.41-1.41l-0.184-0.184h-0.258H6.908c-0.344,0-0.625-0.279-0.625-0.625
	v-8.129c0-0.344,0.281-0.623,0.625-0.623h12.5c0.346,0,0.625,0.279,0.625,0.623V117.826z"/>
<circle cx="13.158" cy="113.764" r="0.625"/>
<circle cx="15.658" cy="113.764" r="0.625"/>
<circle cx="10.717" cy="113.764" r="0.625"/>
<path d="M34.835,98.027c0.386-0.057,0.833-0.107,1.323-0.107c2.11,0,2.717,1.248,2.717,2.537c0,0.834-0.222,1.539-0.715,2.059
	c-0.464,0.479-1.227,0.736-2.186,0.736c-0.436,0-0.809-0.008-1.14-0.047V98.027z M35.409,102.76
	c0.171,0.023,0.418,0.033,0.665,0.033c1.424,0,2.203-0.803,2.203-2.313c0-1.365-0.733-2.102-2.099-2.102
	c-0.33,0-0.592,0.033-0.77,0.066V102.76z"/>
<path d="M40.004,98.791c-0.219,0-0.373-0.168-0.373-0.391c0-0.213,0.159-0.391,0.381-0.391c0.227,0,0.373,0.178,0.373,0.391
	C40.385,98.639,40.227,98.791,40.004,98.791z M40.293,103.211h-0.569v-3.756h0.569V103.211z"/>
<path d="M43.189,100.029c-0.138-0.092-0.394-0.223-0.729-0.223c-0.414,0-0.637,0.256-0.637,0.557c0,0.328,0.214,0.479,0.695,0.688
	c0.607,0.242,0.959,0.561,0.959,1.131c0,0.67-0.51,1.104-1.33,1.104c-0.371,0-0.73-0.098-0.985-0.25l0.159-0.443
	c0.201,0.117,0.523,0.26,0.846,0.26c0.508,0,0.754-0.271,0.754-0.611c0-0.352-0.201-0.545-0.695-0.746
	c-0.637-0.25-0.959-0.602-0.959-1.063c0-0.586,0.47-1.063,1.227-1.063c0.357,0,0.662,0.098,0.863,0.225L43.189,100.029z"/>
<path d="M44.893,100.088c0.264-0.461,0.695-0.719,1.281-0.719c0.893,0,1.533,0.76,1.533,1.918c0,1.371-0.809,2.008-1.633,2.008
	c-0.499,0-0.914-0.227-1.133-0.598h-0.016v2.057h-0.57v-4.088c0-0.494-0.016-0.871-0.027-1.213h0.516l0.037,0.635H44.893z
	 M44.926,101.721c0,0.73,0.545,1.113,1.056,1.113c0.737,0,1.147-0.637,1.147-1.533c0-0.777-0.393-1.463-1.127-1.463
	c-0.64,0-1.076,0.619-1.076,1.164V101.721z"/>
<path d="M49.141,103.211h-0.572v-5.514h0.572V103.211z"/>
<path d="M52.738,102.316c0,0.309,0.008,0.637,0.055,0.895h-0.524l-0.054-0.475h-0.021c-0.192,0.291-0.577,0.559-1.109,0.559
	c-0.715,0-1.098-0.52-1.098-1.066c0-0.9,0.787-1.395,2.182-1.387c0-0.318,0-1.035-0.857-1.035c-0.322,0-0.662,0.088-0.918,0.273
	l-0.139-0.393c0.307-0.201,0.725-0.318,1.148-0.318c1.059,0,1.336,0.75,1.336,1.492V102.316z M52.172,101.26
	c-0.707,0-1.599,0.109-1.599,0.896c0,0.486,0.306,0.697,0.649,0.697c0.556,0,0.949-0.43,0.949-0.881V101.26z"/>
<path d="M56.678,99.455l-1.002,2.658c-0.447,1.225-0.766,1.928-1.235,2.371c-0.318,0.283-0.628,0.4-0.767,0.439l-0.158-0.48
	c0.879-0.328,1.213-1.277,1.213-1.355c0-0.035-0.012-0.086-0.041-0.156l-1.328-3.477h0.625l0.82,2.283
	c0.098,0.258,0.181,0.561,0.243,0.787h0.021c0.064-0.227,0.15-0.512,0.244-0.805l0.758-2.266H56.678z"/>
<path d="M61.035,103.211h-0.574l-1.674-2.764c-0.353-0.586-0.691-1.172-0.947-1.75l-0.027,0.01c0.048,0.67,0.057,1.281,0.057,2.193
	v2.311h-0.541v-5.25h0.602l1.698,2.764c0.372,0.629,0.674,1.172,0.917,1.717l0.012-0.01c-0.054-0.727-0.068-1.355-0.068-2.186
	v-2.285h0.547V103.211z"/>
<path d="M64.646,102.316c0,0.309,0.004,0.637,0.055,0.895h-0.523l-0.057-0.475h-0.02c-0.195,0.291-0.582,0.559-1.113,0.559
	c-0.717,0-1.094-0.52-1.094-1.066c0-0.9,0.783-1.395,2.178-1.387c0-0.318,0-1.035-0.854-1.035c-0.327,0-0.662,0.088-0.917,0.273
	l-0.138-0.393c0.301-0.201,0.725-0.318,1.143-0.318c1.063,0,1.34,0.75,1.34,1.492V102.316z M64.082,101.26
	c-0.713,0-1.602,0.109-1.602,0.896c0,0.486,0.303,0.697,0.646,0.697c0.562,0,0.956-0.43,0.956-0.881V101.26z"/>
<path d="M70.863,103.211h-0.566v-2.168c0-0.729-0.258-1.197-0.824-1.197c-0.465,0-0.883,0.43-0.883,1.004v2.361h-0.565V100.9
	c0-0.604-0.255-1.055-0.788-1.055c-0.49,0-0.926,0.477-0.926,1.063v2.303h-0.564v-2.787c0-0.385-0.013-0.662-0.025-0.971h0.503
	l0.033,0.602h0.021c0.207-0.365,0.554-0.686,1.145-0.686c0.488,0,0.869,0.301,1.029,0.75h0.012c0.248-0.449,0.629-0.75,1.207-0.75
	c0.465,0,1.193,0.291,1.193,1.58V103.211z"/>
<path d="M74.633,103.053c-0.213,0.109-0.607,0.232-1.176,0.232c-1.098,0-1.756-0.77-1.756-1.891c0-1.182,0.662-2.025,1.678-2.025
	c1.158,0,1.455,1.063,1.455,1.715c0,0.129-0.008,0.227-0.012,0.318h-2.559c0.004,1.039,0.598,1.432,1.271,1.432
	c0.471,0,0.756-0.098,0.99-0.191L74.633,103.053z M74.27,100.977c0.008-0.512-0.207-1.172-0.947-1.172
	c-0.686,0-0.992,0.652-1.047,1.172H74.27z"/>
<path d="M39.078,118.291c-0.385,0.186-1.133,0.373-2.09,0.373c-2.156,0-3.895-1.396-3.895-4.234c0-2.707,1.684-4.391,4.137-4.391
	c1.001,0,1.584,0.209,1.848,0.342l-0.242,0.77c-0.385-0.188-0.924-0.342-1.583-0.342c-1.903,0-3.202,1.277-3.202,3.588
	c0,2.199,1.188,3.498,3.146,3.498c0.639,0,1.266-0.143,1.684-0.342L39.078,118.291z"/>
<path d="M45.47,115.496c0,2.232-1.475,3.18-2.806,3.18c-1.54,0-2.729-1.156-2.729-3.092c0-2.047,1.276-3.18,2.806-3.18
	C44.381,112.404,45.47,113.658,45.47,115.496z M42.708,113.119c-1.298,0-1.837,1.277-1.837,2.432c0,1.332,0.736,2.41,1.814,2.41
	c1.09,0,1.849-1.078,1.849-2.432C44.534,114.461,44.018,113.119,42.708,113.119z"/>
<path d="M55.018,118.543h-0.902v-3.465c0-1.166-0.418-1.914-1.32-1.914c-0.736,0-1.408,0.693-1.408,1.605v3.773h-0.901v-3.695
	c0-0.957-0.407-1.684-1.255-1.684c-0.78,0-1.474,0.77-1.474,1.705v3.674h-0.901v-4.455c0-0.615-0.023-1.057-0.045-1.551h0.803
	l0.056,0.967h0.032c0.33-0.582,0.881-1.1,1.827-1.1c0.78,0,1.386,0.484,1.64,1.199h0.021c0.396-0.715,1.001-1.199,1.926-1.199
	c0.736,0,1.902,0.473,1.902,2.531V118.543z"/>
<path d="M64.951,118.543h-0.902v-3.465c0-1.166-0.418-1.914-1.32-1.914c-0.736,0-1.408,0.693-1.408,1.605v3.773h-0.902v-3.695
	c0-0.957-0.406-1.684-1.254-1.684c-0.781,0-1.475,0.77-1.475,1.705v3.674h-0.901v-4.455c0-0.615-0.022-1.057-0.044-1.551h0.803
	l0.055,0.967h0.033c0.33-0.582,0.881-1.1,1.826-1.1c0.781,0,1.387,0.484,1.64,1.199h0.022c0.396-0.715,1-1.199,1.925-1.199
	c0.737,0,1.903,0.473,1.903,2.531V118.543z"/>
<path d="M70.967,118.291c-0.34,0.164-0.967,0.373-1.881,0.373c-1.749,0-2.794-1.232-2.794-3.025c0-1.881,1.056-3.234,2.673-3.234
	c1.848,0,2.322,1.695,2.322,2.74c0,0.209-0.012,0.363-0.023,0.506h-4.08c0.01,1.66,0.957,2.287,2.035,2.287
	c0.748,0,1.199-0.152,1.572-0.307L70.967,118.291z M70.385,114.969c0.01-0.814-0.33-1.871-1.508-1.871
	c-1.1,0-1.584,1.045-1.672,1.871H70.385z"/>
<path d="M77.446,118.543h-0.913V115c0-0.979-0.352-1.836-1.396-1.836c-0.781,0-1.574,0.66-1.574,1.705v3.674H72.65v-4.455
	c0-0.615-0.023-1.066-0.045-1.551h0.814l0.055,0.979h0.021c0.297-0.582,0.99-1.111,1.926-1.111c0.748,0,2.024,0.451,2.024,2.486
	V118.543z"/>
<path d="M79.458,111.459l0.902-0.309v1.396h1.553v0.717H80.36v3.465c0,0.76,0.232,1.178,0.814,1.178c0.275,0,0.463-0.033,0.617-0.09
	l0.055,0.705c-0.199,0.088-0.506,0.143-0.893,0.143c-1.451,0-1.496-1.32-1.496-1.957v-3.443h-0.924v-0.717h0.924V111.459z"/>
<line fill="#70C198" stroke="#A7A2A1" stroke-width="0.5" x1="20.001" y1="140" x2="150.001" y2="140"/>
<rect x="0.001" y="140" opacity="0.3" fill="#FFFFFF" width="150" height="50"/>
<path d="M19.408,158.449h-12.5c-0.689,0-1.25,0.559-1.25,1.248v8.129c0,0.691,0.561,1.25,1.25,1.25h8.773l2.477,2.477v-2.477h1.25
	c0.691,0,1.25-0.559,1.25-1.25v-8.129C20.658,159.008,20.1,158.449,19.408,158.449z M20.033,167.826
	c0,0.346-0.279,0.625-0.625,0.625h-1.25h-0.625v0.625v0.969l-1.41-1.41l-0.184-0.184h-0.258H6.908c-0.344,0-0.625-0.279-0.625-0.625
	v-8.129c0-0.344,0.281-0.623,0.625-0.623h12.5c0.346,0,0.625,0.279,0.625,0.623V167.826z"/>
<circle cx="13.158" cy="163.764" r="0.625"/>
<circle cx="15.658" cy="163.764" r="0.625"/>
<circle cx="10.717" cy="163.764" r="0.625"/>
<path d="M34.835,148.027c0.386-0.057,0.833-0.107,1.323-0.107c2.11,0,2.717,1.248,2.717,2.537c0,0.834-0.222,1.539-0.715,2.059
	c-0.464,0.479-1.227,0.736-2.186,0.736c-0.436,0-0.809-0.008-1.14-0.047V148.027z M35.409,152.76
	c0.171,0.023,0.418,0.033,0.665,0.033c1.424,0,2.203-0.803,2.203-2.313c0-1.365-0.733-2.102-2.099-2.102
	c-0.33,0-0.592,0.033-0.77,0.066V152.76z"/>
<path d="M40.004,148.791c-0.219,0-0.373-0.168-0.373-0.391c0-0.213,0.159-0.391,0.381-0.391c0.227,0,0.373,0.178,0.373,0.391
	C40.385,148.639,40.227,148.791,40.004,148.791z M40.293,153.211h-0.569v-3.756h0.569V153.211z"/>
<path d="M43.189,150.029c-0.138-0.092-0.394-0.223-0.729-0.223c-0.414,0-0.637,0.256-0.637,0.557c0,0.328,0.214,0.479,0.695,0.688
	c0.607,0.242,0.959,0.561,0.959,1.131c0,0.67-0.51,1.104-1.33,1.104c-0.371,0-0.73-0.098-0.985-0.25l0.159-0.443
	c0.201,0.117,0.523,0.26,0.846,0.26c0.508,0,0.754-0.271,0.754-0.611c0-0.352-0.201-0.545-0.695-0.746
	c-0.637-0.25-0.959-0.602-0.959-1.063c0-0.586,0.47-1.063,1.227-1.063c0.357,0,0.662,0.098,0.863,0.225L43.189,150.029z"/>
<path d="M44.893,150.088c0.264-0.461,0.695-0.719,1.281-0.719c0.893,0,1.533,0.76,1.533,1.918c0,1.371-0.809,2.008-1.633,2.008
	c-0.499,0-0.914-0.227-1.133-0.598h-0.016v2.057h-0.57v-4.088c0-0.494-0.016-0.871-0.027-1.213h0.516l0.037,0.635H44.893z
	 M44.926,151.721c0,0.73,0.545,1.113,1.056,1.113c0.737,0,1.147-0.637,1.147-1.533c0-0.777-0.393-1.463-1.127-1.463
	c-0.64,0-1.076,0.619-1.076,1.164V151.721z"/>
<path d="M49.141,153.211h-0.572v-5.514h0.572V153.211z"/>
<path d="M52.738,152.316c0,0.309,0.008,0.637,0.055,0.895h-0.524l-0.054-0.475h-0.021c-0.192,0.291-0.577,0.559-1.109,0.559
	c-0.715,0-1.098-0.52-1.098-1.066c0-0.9,0.787-1.395,2.182-1.387c0-0.318,0-1.035-0.857-1.035c-0.322,0-0.662,0.088-0.918,0.273
	l-0.139-0.393c0.307-0.201,0.725-0.318,1.148-0.318c1.059,0,1.336,0.75,1.336,1.492V152.316z M52.172,151.26
	c-0.707,0-1.599,0.109-1.599,0.896c0,0.486,0.306,0.697,0.649,0.697c0.556,0,0.949-0.43,0.949-0.881V151.26z"/>
<path d="M56.678,149.455l-1.002,2.658c-0.447,1.225-0.766,1.928-1.235,2.371c-0.318,0.283-0.628,0.4-0.767,0.439l-0.158-0.48
	c0.879-0.328,1.213-1.277,1.213-1.355c0-0.035-0.012-0.086-0.041-0.156l-1.328-3.477h0.625l0.82,2.283
	c0.098,0.258,0.181,0.561,0.243,0.787h0.021c0.064-0.227,0.15-0.512,0.244-0.805l0.758-2.266H56.678z"/>
<path d="M61.035,153.211h-0.574l-1.674-2.764c-0.353-0.586-0.691-1.172-0.947-1.75l-0.027,0.01c0.048,0.67,0.057,1.281,0.057,2.193
	v2.311h-0.541v-5.25h0.602l1.698,2.764c0.372,0.629,0.674,1.172,0.917,1.717l0.012-0.01c-0.054-0.727-0.068-1.355-0.068-2.186
	v-2.285h0.547V153.211z"/>
<path d="M64.646,152.316c0,0.309,0.004,0.637,0.055,0.895h-0.523l-0.057-0.475h-0.02c-0.195,0.291-0.582,0.559-1.113,0.559
	c-0.717,0-1.094-0.52-1.094-1.066c0-0.9,0.783-1.395,2.178-1.387c0-0.318,0-1.035-0.854-1.035c-0.327,0-0.662,0.088-0.917,0.273
	l-0.138-0.393c0.301-0.201,0.725-0.318,1.143-0.318c1.063,0,1.34,0.75,1.34,1.492V152.316z M64.082,151.26
	c-0.713,0-1.602,0.109-1.602,0.896c0,0.486,0.303,0.697,0.646,0.697c0.562,0,0.956-0.43,0.956-0.881V151.26z"/>
<path d="M70.863,153.211h-0.566v-2.168c0-0.729-0.258-1.197-0.824-1.197c-0.465,0-0.883,0.43-0.883,1.004v2.361h-0.565V150.9
	c0-0.604-0.255-1.055-0.788-1.055c-0.49,0-0.926,0.477-0.926,1.063v2.303h-0.564v-2.787c0-0.385-0.013-0.662-0.025-0.971h0.503
	l0.033,0.602h0.021c0.207-0.365,0.554-0.686,1.145-0.686c0.488,0,0.869,0.301,1.029,0.75h0.012c0.248-0.449,0.629-0.75,1.207-0.75
	c0.465,0,1.193,0.291,1.193,1.58V153.211z"/>
<path d="M74.633,153.053c-0.213,0.109-0.607,0.232-1.176,0.232c-1.098,0-1.756-0.77-1.756-1.891c0-1.182,0.662-2.025,1.678-2.025
	c1.158,0,1.455,1.063,1.455,1.715c0,0.129-0.008,0.227-0.012,0.318h-2.559c0.004,1.039,0.598,1.432,1.271,1.432
	c0.471,0,0.756-0.098,0.99-0.191L74.633,153.053z M74.27,150.977c0.008-0.512-0.207-1.172-0.947-1.172
	c-0.686,0-0.992,0.652-1.047,1.172H74.27z"/>
<path d="M39.078,168.291c-0.385,0.186-1.133,0.373-2.09,0.373c-2.156,0-3.895-1.396-3.895-4.234c0-2.707,1.684-4.391,4.137-4.391
	c1.001,0,1.584,0.209,1.848,0.342l-0.242,0.77c-0.385-0.188-0.924-0.342-1.583-0.342c-1.903,0-3.202,1.277-3.202,3.588
	c0,2.199,1.188,3.498,3.146,3.498c0.639,0,1.266-0.143,1.684-0.342L39.078,168.291z"/>
<path d="M45.47,165.496c0,2.232-1.475,3.18-2.806,3.18c-1.54,0-2.729-1.156-2.729-3.092c0-2.047,1.276-3.18,2.806-3.18
	C44.381,162.404,45.47,163.658,45.47,165.496z M42.708,163.119c-1.298,0-1.837,1.277-1.837,2.432c0,1.332,0.736,2.41,1.814,2.41
	c1.09,0,1.849-1.078,1.849-2.432C44.534,164.461,44.018,163.119,42.708,163.119z"/>
<path d="M55.018,168.543h-0.902v-3.465c0-1.166-0.418-1.914-1.32-1.914c-0.736,0-1.408,0.693-1.408,1.605v3.773h-0.901v-3.695
	c0-0.957-0.407-1.684-1.255-1.684c-0.78,0-1.474,0.77-1.474,1.705v3.674h-0.901v-4.455c0-0.615-0.023-1.057-0.045-1.551h0.803
	l0.056,0.967h0.032c0.33-0.582,0.881-1.1,1.827-1.1c0.78,0,1.386,0.484,1.64,1.199h0.021c0.396-0.715,1.001-1.199,1.926-1.199
	c0.736,0,1.902,0.473,1.902,2.531V168.543z"/>
<path d="M64.951,168.543h-0.902v-3.465c0-1.166-0.418-1.914-1.32-1.914c-0.736,0-1.408,0.693-1.408,1.605v3.773h-0.902v-3.695
	c0-0.957-0.406-1.684-1.254-1.684c-0.781,0-1.475,0.77-1.475,1.705v3.674h-0.901v-4.455c0-0.615-0.022-1.057-0.044-1.551h0.803
	l0.055,0.967h0.033c0.33-0.582,0.881-1.1,1.826-1.1c0.781,0,1.387,0.484,1.64,1.199h0.022c0.396-0.715,1-1.199,1.925-1.199
	c0.737,0,1.903,0.473,1.903,2.531V168.543z"/>
<path d="M70.967,168.291c-0.34,0.164-0.967,0.373-1.881,0.373c-1.749,0-2.794-1.232-2.794-3.025c0-1.881,1.056-3.234,2.673-3.234
	c1.848,0,2.322,1.695,2.322,2.74c0,0.209-0.012,0.363-0.023,0.506h-4.08c0.01,1.66,0.957,2.287,2.035,2.287
	c0.748,0,1.199-0.152,1.572-0.307L70.967,168.291z M70.385,164.969c0.01-0.814-0.33-1.871-1.508-1.871
	c-1.1,0-1.584,1.045-1.672,1.871H70.385z"/>
<path d="M77.446,168.543h-0.913V165c0-0.979-0.352-1.836-1.396-1.836c-0.781,0-1.574,0.66-1.574,1.705v3.674H72.65v-4.455
	c0-0.615-0.023-1.066-0.045-1.551h0.814l0.055,0.979h0.021c0.297-0.582,0.99-1.111,1.926-1.111c0.748,0,2.024,0.451,2.024,2.486
	V168.543z"/>
<path d="M79.458,161.459l0.902-0.309v1.396h1.553v0.717H80.36v3.465c0,0.76,0.232,1.178,0.814,1.178c0.275,0,0.463-0.033,0.617-0.09
	l0.055,0.705c-0.199,0.088-0.506,0.143-0.893,0.143c-1.451,0-1.496-1.32-1.496-1.957v-3.443h-0.924v-0.717h0.924V161.459z"/>
<line fill="#70C198" stroke="#A7A2A1" stroke-width="0.5" x1="20.001" y1="190" x2="150.001" y2="190"/>
<polygon fill="#9FA0A0" points="166.342,55.51 175.002,40.51 183.662,55.51 "/>
<line fill="none" stroke="#9FA0A0" stroke-width="2" x1="150.002" y1="40" x2="195.002" y2="40"/>
<line fill="none" stroke="#9FA0A0" stroke-width="2" x1="152.502" y1="240" x2="197.502" y2="240"/>
<g>
	<g>
		<path fill="#9FA0A0" d="M174.036,40.258c0,49.383,0,98.766,0,148.148c0,17.284,0,34.567,0,51.852c0,0.322,1.932,0.042,1.932-0.518
			c0-49.383,0-98.766,0-148.148c0-17.284,0-34.567,0-51.852C175.968,39.418,174.036,39.699,174.036,40.258L174.036,40.258z"/>
	</g>
</g>
<polygon fill="#9FA0A0" points="175.002,240 166.342,225 183.662,225 "/>
</svg>
